{
  "abi": "ARM64_V8A",
  "abiPlatformVersion": 16,
  "buildSettings": {
    "environmentVariables": []
  },
  "cmake": {
    "cmakeArtifactsBaseFolder": "/home/luke/audio_apps_dev/infra/infra/Builds/Android/app/.cxx/cmake/debug_Debug/arm64-v8a",
    "cmakeServerLogFile": "/home/luke/audio_apps_dev/infra/infra/Builds/Android/app/.cxx/cmake/debug_Debug/arm64-v8a/cmake_server_log.txt",
    "cmakeWrappingBaseFolder": "/home/luke/audio_apps_dev/infra/infra/Builds/Android/app/.cxx/cxx/debug_Debug/arm64-v8a",
    "effectiveConfiguration": {
      "name": "traditional-android-studio-cmake-environment",
      "description": "Composite reified CMakeSettings configuration",
      "generator": "Ninja",
      "inheritEnvironments": [
        "ndk"
      ],
      "buildRoot": "/home/luke/audio_apps_dev/infra/infra/Builds/Android/app/.cxx/cmake/debug_Debug/arm64-v8a",
      "cmakeToolchain": "/home/luke/Android/Sdk/ndk/21.0.6113669/build/cmake/android.toolchain.cmake",
      "cmakeExecutable": "/home/luke/Android/Sdk/cmake/3.10.2.4988404/bin/cmake",
      "variables": [
        {
          "name": "CMAKE_FIND_ROOT_PATH",
          "value": "/home/luke/audio_apps_dev/infra/infra/Builds/Android/app/.cxx/cmake/debug_Debug/prefab/arm64-v8a/prefab"
        },
        {
          "name": "CMAKE_BUILD_TYPE",
          "value": "Debug"
        },
        {
          "name": "CMAKE_TOOLCHAIN_FILE",
          "value": "/home/luke/Android/Sdk/ndk/21.0.6113669/build/cmake/android.toolchain.cmake"
        },
        {
          "name": "ANDROID_ABI",
          "value": "arm64-v8a"
        },
        {
          "name": "ANDROID_NDK",
          "value": "/home/luke/Android/Sdk/ndk/21.0.6113669"
        },
        {
          "name": "CMAKE_ANDROID_ARCH_ABI",
          "value": "arm64-v8a"
        },
        {
          "name": "CMAKE_ANDROID_NDK",
          "value": "/home/luke/Android/Sdk/ndk/21.0.6113669"
        },
        {
          "name": "CMAKE_EXPORT_COMPILE_COMMANDS",
          "value": "ON"
        },
        {
          "name": "CMAKE_LIBRARY_OUTPUT_DIRECTORY",
          "value": "/home/luke/audio_apps_dev/infra/infra/Builds/Android/app/build/intermediates/cmake/debug_Debug/obj/arm64-v8a"
        },
        {
          "name": "CMAKE_MAKE_PROGRAM",
          "value": "/home/luke/Android/Sdk/cmake/3.10.2.4988404/bin/ninja"
        },
        {
          "name": "CMAKE_SYSTEM_NAME",
          "value": "Android"
        },
        {
          "name": "CMAKE_SYSTEM_VERSION",
          "value": "16"
        },
        {
          "name": "ANDROID_TOOLCHAIN",
          "value": "clang"
        },
        {
          "name": "ANDROID_PLATFORM",
          "value": "android-16"
        },
        {
          "name": "ANDROID_STL",
          "value": "c++_static"
        },
        {
          "name": "ANDROID_CPP_FEATURES",
          "value": "exceptions rtti"
        },
        {
          "name": "ANDROID_ARM_MODE",
          "value": "arm"
        },
        {
          "name": "ANDROID_ARM_NEON",
          "value": "TRUE"
        },
        {
          "name": "CMAKE_CXX_STANDARD",
          "value": "14"
        },
        {
          "name": "CMAKE_CXX_EXTENSIONS",
          "value": "OFF"
        },
        {
          "name": "JUCE_BUILD_CONFIGURATION",
          "value": "DEBUG"
        },
        {
          "name": "CMAKE_CXX_FLAGS_DEBUG",
          "value": "-O0"
        },
        {
          "name": "CMAKE_C_FLAGS_DEBUG",
          "value": "-O0"
        }
      ]
    }
  },
  "cxxBuildFolder": "/home/luke/audio_apps_dev/infra/infra/Builds/Android/app/.cxx/cmake/debug_Debug/arm64-v8a",
  "info": {
    "abi": "ARM64_V8A",
    "bitness": 64,
    "deprecated": false,
    "default": true
  },
  "originalCxxBuildFolder": "/home/luke/audio_apps_dev/infra/infra/Builds/Android/app/.cxx/cmake/debug_Debug/arm64-v8a",
  "variant": {
    "buildSystemArgumentList": [
      "-DANDROID_TOOLCHAIN\u003dclang",
      "-DANDROID_PLATFORM\u003dandroid-16",
      "-DANDROID_STL\u003dc++_static",
      "-DANDROID_CPP_FEATURES\u003dexceptions rtti",
      "-DANDROID_ARM_MODE\u003darm",
      "-DANDROID_ARM_NEON\u003dTRUE",
      "-DCMAKE_CXX_STANDARD\u003d14",
      "-DCMAKE_CXX_EXTENSIONS\u003dOFF",
      "-DJUCE_BUILD_CONFIGURATION\u003dDEBUG",
      "-DCMAKE_CXX_FLAGS_DEBUG\u003d-O0",
      "-DCMAKE_C_FLAGS_DEBUG\u003d-O0"
    ],
    "buildTargetSet": [],
    "cFlagsList": [],
    "cmakeSettingsConfiguration": "android-gradle-plugin-predetermined-name",
    "cppFlagsList": [],
    "isDebuggableEnabled": true,
    "module": {
      "buildSystem": "CMAKE",
      "cmake": {
        "cmakeExe": "/home/luke/Android/Sdk/cmake/3.10.2.4988404/bin/cmake",
        "minimumCmakeVersion": "3.10.2",
        "ninjaExe": "/home/luke/Android/Sdk/cmake/3.10.2.4988404/bin/ninja"
      },
      "cmakeToolchainFile": "/home/luke/Android/Sdk/ndk/21.0.6113669/build/cmake/android.toolchain.cmake",
      "cxxFolder": "/home/luke/audio_apps_dev/infra/infra/Builds/Android/app/.cxx",
      "gradleModulePathName": ":app",
      "intermediatesFolder": "/home/luke/audio_apps_dev/infra/infra/Builds/Android/app/build/intermediates",
      "makeFile": "/home/luke/audio_apps_dev/infra/infra/Builds/Android/app/CMakeLists.txt",
      "moduleBuildFile": "/home/luke/audio_apps_dev/infra/infra/Builds/Android/app/build.gradle",
      "moduleRootFolder": "/home/luke/audio_apps_dev/infra/infra/Builds/Android/app",
      "ndkDefaultAbiList": [
        "ARMEABI_V7A",
        "ARM64_V8A",
        "X86",
        "X86_64"
      ],
      "ndkFolder": "/home/luke/Android/Sdk/ndk/21.0.6113669",
      "ndkMetaAbiList": [
        {
          "abi": "ARMEABI_V7A",
          "bitness": 32,
          "deprecated": false,
          "default": true
        },
        {
          "abi": "ARM64_V8A",
          "bitness": 64,
          "deprecated": false,
          "default": true
        },
        {
          "abi": "X86",
          "bitness": 32,
          "deprecated": false,
          "default": true
        },
        {
          "abi": "X86_64",
          "bitness": 64,
          "deprecated": false,
          "default": true
        }
      ],
      "ndkMetaPlatforms": {
        "min": 16,
        "max": 29,
        "aliases": {
          "20": 19,
          "25": 24,
          "J": 16,
          "J-MR1": 17,
          "J-MR2": 18,
          "K": 19,
          "L": 21,
          "L-MR1": 22,
          "M": 23,
          "N": 24,
          "N-MR1": 24,
          "O": 26,
          "O-MR1": 27,
          "P": 28,
          "Q": 29
        }
      },
      "ndkSupportedAbiList": [
        "ARMEABI_V7A",
        "ARM64_V8A",
        "X86",
        "X86_64"
      ],
      "ndkDefaultStl": "LIBCXX_STATIC",
      "ndkVersion": "21.0.6113669",
      "project": {
        "compilerSettingsCacheFolder": "/home/luke/audio_apps_dev/infra/infra/Builds/Android/.cxx",
        "cxxFolder": "/home/luke/audio_apps_dev/infra/infra/Builds/Android/.cxx",
        "ideBuildTargetAbi": "arm64-v8a,armeabi-v7a,armeabi",
        "isBuildOnlyTargetAbiEnabled": true,
        "isCmakeBuildCohabitationEnabled": false,
        "isNativeCompilerSettingsCacheEnabled": false,
        "rootBuildGradleFolder": "/home/luke/audio_apps_dev/infra/infra/Builds/Android",
        "sdkFolder": "/home/luke/Android/Sdk",
        "isPrefabEnabled": false
      },
      "splitsAbiFilterSet": [],
      "stlSharedObjectMap": {
        "LIBCXX_SHARED": {
          "ARMEABI_V7A": "/home/luke/Android/Sdk/ndk/21.0.6113669/toolchains/llvm/prebuilt/linux-x86_64/sysroot/usr/lib/arm-linux-androideabi/libc++_shared.so",
          "ARM64_V8A": "/home/luke/Android/Sdk/ndk/21.0.6113669/toolchains/llvm/prebuilt/linux-x86_64/sysroot/usr/lib/aarch64-linux-android/libc++_shared.so",
          "X86": "/home/luke/Android/Sdk/ndk/21.0.6113669/toolchains/llvm/prebuilt/linux-x86_64/sysroot/usr/lib/i686-linux-android/libc++_shared.so",
          "X86_64": "/home/luke/Android/Sdk/ndk/21.0.6113669/toolchains/llvm/prebuilt/linux-x86_64/sysroot/usr/lib/x86_64-linux-android/libc++_shared.so"
        },
        "LIBCXX_STATIC": {},
        "NONE": {},
        "SYSTEM": {}
      }
    },
    "objFolder": "/home/luke/audio_apps_dev/infra/infra/Builds/Android/app/build/intermediates/cmake/debug_Debug/obj",
    "variantName": "debug_Debug",
    "validAbiList": [
      "ARM64_V8A"
    ],
    "prefabDirectory": "/home/luke/audio_apps_dev/infra/infra/Builds/Android/app/.cxx/cmake/debug_Debug/prefab",
    "prefabPackageDirectoryList": []
  },
  "prefabFolder": "/home/luke/audio_apps_dev/infra/infra/Builds/Android/app/.cxx/cmake/debug_Debug/prefab/arm64-v8a"
}