[
{
  "directory": "/home/luke/audio_apps_dev/infra/infra/Builds/Android/app/.cxx/cmake/release_Release/arm64-v8a",
  "command": "/home/luke/Android/Sdk/ndk/21.0.6113669/toolchains/llvm/prebuilt/linux-x86_64/bin/clang++ --target=aarch64-none-linux-android21 --gcc-toolchain=/home/luke/Android/Sdk/ndk/21.0.6113669/toolchains/llvm/prebuilt/linux-x86_64 --sysroot=/home/luke/Android/Sdk/ndk/21.0.6113669/toolchains/llvm/prebuilt/linux-x86_64/sysroot  -DJUCER_ANDROIDSTUDIO_7F0E4A25=1 -DJUCE_ANDROID=1 -DJUCE_ANDROID_API_VERSION=16 -DJUCE_APP_VERSION=1.0.0 -DJUCE_APP_VERSION_HEX=0x10000 -DJUCE_DISPLAY_SPLASH_SCREEN=1 -DJUCE_GLOBAL_MODULE_SETTINGS_INCLUDED=1 -DJUCE_MODULE_AVAILABLE_juce_audio_basics=1 -DJUCE_MODULE_AVAILABLE_juce_audio_devices=1 -DJUCE_MODULE_AVAILABLE_juce_audio_formats=1 -DJUCE_MODULE_AVAILABLE_juce_audio_processors=1 -DJUCE_MODULE_AVAILABLE_juce_audio_utils=1 -DJUCE_MODULE_AVAILABLE_juce_core=1 -DJUCE_MODULE_AVAILABLE_juce_data_structures=1 -DJUCE_MODULE_AVAILABLE_juce_dsp=1 -DJUCE_MODULE_AVAILABLE_juce_events=1 -DJUCE_MODULE_AVAILABLE_juce_graphics=1 -DJUCE_MODULE_AVAILABLE_juce_gui_basics=1 -DJUCE_MODULE_AVAILABLE_juce_gui_extra=1 -DJUCE_MODULE_AVAILABLE_juce_opengl=1 -DJUCE_PROJUCER_VERSION=0x60001 -DJUCE_PUSH_NOTIFICATIONS=1 -DJUCE_PUSH_NOTIFICATIONS_ACTIVITY=\\\"com/rmsl/juce/JuceActivity\\\" -DJUCE_STANDALONE_APPLICATION=1 -DJUCE_STRICT_REFCOUNTEDPOINTER=1 -DJUCE_USE_DARK_SPLASH_SCREEN=1 -DNDEBUG=1 -Djuce_jni_EXPORTS -I../../../../../../../JuceLibraryCode -I/home/luke/audio_apps_dev/JUCE/modules -I/home/luke/Android/Sdk/ndk/21.0.6113669/sources/android/cpufeatures -I/home/luke/audio_apps_dev/JUCE/modules/juce_audio_devices/native/oboe/include  -g -DANDROID -fdata-sections -ffunction-sections -funwind-tables -fstack-protector-strong -no-canonical-prefixes -D_FORTIFY_SOURCE=2 -Wformat -Werror=format-security -fexceptions -frtti  -O2 -DNDEBUG -O3 -fPIC   -fsigned-char -std=c++14 -o CMakeFiles/juce_jni.dir/home/luke/audio_apps_dev/infra/infra/Source/Main.cpp.o -c /home/luke/audio_apps_dev/infra/infra/Source/Main.cpp",
  "file": "/home/luke/audio_apps_dev/infra/infra/Source/Main.cpp"
},

{
  "directory": "/home/luke/audio_apps_dev/infra/infra/Builds/Android/app/.cxx/cmake/release_Release/arm64-v8a",
  "command": "/home/luke/Android/Sdk/ndk/21.0.6113669/toolchains/llvm/prebuilt/linux-x86_64/bin/clang++ --target=aarch64-none-linux-android21 --gcc-toolchain=/home/luke/Android/Sdk/ndk/21.0.6113669/toolchains/llvm/prebuilt/linux-x86_64 --sysroot=/home/luke/Android/Sdk/ndk/21.0.6113669/toolchains/llvm/prebuilt/linux-x86_64/sysroot  -DJUCER_ANDROIDSTUDIO_7F0E4A25=1 -DJUCE_ANDROID=1 -DJUCE_ANDROID_API_VERSION=16 -DJUCE_APP_VERSION=1.0.0 -DJUCE_APP_VERSION_HEX=0x10000 -DJUCE_DISPLAY_SPLASH_SCREEN=1 -DJUCE_GLOBAL_MODULE_SETTINGS_INCLUDED=1 -DJUCE_MODULE_AVAILABLE_juce_audio_basics=1 -DJUCE_MODULE_AVAILABLE_juce_audio_devices=1 -DJUCE_MODULE_AVAILABLE_juce_audio_formats=1 -DJUCE_MODULE_AVAILABLE_juce_audio_processors=1 -DJUCE_MODULE_AVAILABLE_juce_audio_utils=1 -DJUCE_MODULE_AVAILABLE_juce_core=1 -DJUCE_MODULE_AVAILABLE_juce_data_structures=1 -DJUCE_MODULE_AVAILABLE_juce_dsp=1 -DJUCE_MODULE_AVAILABLE_juce_events=1 -DJUCE_MODULE_AVAILABLE_juce_graphics=1 -DJUCE_MODULE_AVAILABLE_juce_gui_basics=1 -DJUCE_MODULE_AVAILABLE_juce_gui_extra=1 -DJUCE_MODULE_AVAILABLE_juce_opengl=1 -DJUCE_PROJUCER_VERSION=0x60001 -DJUCE_PUSH_NOTIFICATIONS=1 -DJUCE_PUSH_NOTIFICATIONS_ACTIVITY=\\\"com/rmsl/juce/JuceActivity\\\" -DJUCE_STANDALONE_APPLICATION=1 -DJUCE_STRICT_REFCOUNTEDPOINTER=1 -DJUCE_USE_DARK_SPLASH_SCREEN=1 -DNDEBUG=1 -Djuce_jni_EXPORTS -I../../../../../../../JuceLibraryCode -I/home/luke/audio_apps_dev/JUCE/modules -I/home/luke/Android/Sdk/ndk/21.0.6113669/sources/android/cpufeatures -I/home/luke/audio_apps_dev/JUCE/modules/juce_audio_devices/native/oboe/include  -g -DANDROID -fdata-sections -ffunction-sections -funwind-tables -fstack-protector-strong -no-canonical-prefixes -D_FORTIFY_SOURCE=2 -Wformat -Werror=format-security -fexceptions -frtti  -O2 -DNDEBUG -O3 -fPIC   -fsigned-char -std=c++14 -o CMakeFiles/juce_jni.dir/home/luke/audio_apps_dev/infra/infra/Source/MainComponent.cpp.o -c /home/luke/audio_apps_dev/infra/infra/Source/MainComponent.cpp",
  "file": "/home/luke/audio_apps_dev/infra/infra/Source/MainComponent.cpp"
},

{
  "directory": "/home/luke/audio_apps_dev/infra/infra/Builds/Android/app/.cxx/cmake/release_Release/arm64-v8a",
  "command": "/home/luke/Android/Sdk/ndk/21.0.6113669/toolchains/llvm/prebuilt/linux-x86_64/bin/clang++ --target=aarch64-none-linux-android21 --gcc-toolchain=/home/luke/Android/Sdk/ndk/21.0.6113669/toolchains/llvm/prebuilt/linux-x86_64 --sysroot=/home/luke/Android/Sdk/ndk/21.0.6113669/toolchains/llvm/prebuilt/linux-x86_64/sysroot  -DJUCER_ANDROIDSTUDIO_7F0E4A25=1 -DJUCE_ANDROID=1 -DJUCE_ANDROID_API_VERSION=16 -DJUCE_APP_VERSION=1.0.0 -DJUCE_APP_VERSION_HEX=0x10000 -DJUCE_DISPLAY_SPLASH_SCREEN=1 -DJUCE_GLOBAL_MODULE_SETTINGS_INCLUDED=1 -DJUCE_MODULE_AVAILABLE_juce_audio_basics=1 -DJUCE_MODULE_AVAILABLE_juce_audio_devices=1 -DJUCE_MODULE_AVAILABLE_juce_audio_formats=1 -DJUCE_MODULE_AVAILABLE_juce_audio_processors=1 -DJUCE_MODULE_AVAILABLE_juce_audio_utils=1 -DJUCE_MODULE_AVAILABLE_juce_core=1 -DJUCE_MODULE_AVAILABLE_juce_data_structures=1 -DJUCE_MODULE_AVAILABLE_juce_dsp=1 -DJUCE_MODULE_AVAILABLE_juce_events=1 -DJUCE_MODULE_AVAILABLE_juce_graphics=1 -DJUCE_MODULE_AVAILABLE_juce_gui_basics=1 -DJUCE_MODULE_AVAILABLE_juce_gui_extra=1 -DJUCE_MODULE_AVAILABLE_juce_opengl=1 -DJUCE_PROJUCER_VERSION=0x60001 -DJUCE_PUSH_NOTIFICATIONS=1 -DJUCE_PUSH_NOTIFICATIONS_ACTIVITY=\\\"com/rmsl/juce/JuceActivity\\\" -DJUCE_STANDALONE_APPLICATION=1 -DJUCE_STRICT_REFCOUNTEDPOINTER=1 -DJUCE_USE_DARK_SPLASH_SCREEN=1 -DNDEBUG=1 -Djuce_jni_EXPORTS -I../../../../../../../JuceLibraryCode -I/home/luke/audio_apps_dev/JUCE/modules -I/home/luke/Android/Sdk/ndk/21.0.6113669/sources/android/cpufeatures -I/home/luke/audio_apps_dev/JUCE/modules/juce_audio_devices/native/oboe/include  -g -DANDROID -fdata-sections -ffunction-sections -funwind-tables -fstack-protector-strong -no-canonical-prefixes -D_FORTIFY_SOURCE=2 -Wformat -Werror=format-security -fexceptions -frtti  -O2 -DNDEBUG -O3 -fPIC   -fsigned-char -std=c++14 -o CMakeFiles/juce_jni.dir/home/luke/audio_apps_dev/infra/infra/JuceLibraryCode/include_juce_audio_basics.cpp.o -c /home/luke/audio_apps_dev/infra/infra/JuceLibraryCode/include_juce_audio_basics.cpp",
  "file": "/home/luke/audio_apps_dev/infra/infra/JuceLibraryCode/include_juce_audio_basics.cpp"
},

{
  "directory": "/home/luke/audio_apps_dev/infra/infra/Builds/Android/app/.cxx/cmake/release_Release/arm64-v8a",
  "command": "/home/luke/Android/Sdk/ndk/21.0.6113669/toolchains/llvm/prebuilt/linux-x86_64/bin/clang++ --target=aarch64-none-linux-android21 --gcc-toolchain=/home/luke/Android/Sdk/ndk/21.0.6113669/toolchains/llvm/prebuilt/linux-x86_64 --sysroot=/home/luke/Android/Sdk/ndk/21.0.6113669/toolchains/llvm/prebuilt/linux-x86_64/sysroot  -DJUCER_ANDROIDSTUDIO_7F0E4A25=1 -DJUCE_ANDROID=1 -DJUCE_ANDROID_API_VERSION=16 -DJUCE_APP_VERSION=1.0.0 -DJUCE_APP_VERSION_HEX=0x10000 -DJUCE_DISPLAY_SPLASH_SCREEN=1 -DJUCE_GLOBAL_MODULE_SETTINGS_INCLUDED=1 -DJUCE_MODULE_AVAILABLE_juce_audio_basics=1 -DJUCE_MODULE_AVAILABLE_juce_audio_devices=1 -DJUCE_MODULE_AVAILABLE_juce_audio_formats=1 -DJUCE_MODULE_AVAILABLE_juce_audio_processors=1 -DJUCE_MODULE_AVAILABLE_juce_audio_utils=1 -DJUCE_MODULE_AVAILABLE_juce_core=1 -DJUCE_MODULE_AVAILABLE_juce_data_structures=1 -DJUCE_MODULE_AVAILABLE_juce_dsp=1 -DJUCE_MODULE_AVAILABLE_juce_events=1 -DJUCE_MODULE_AVAILABLE_juce_graphics=1 -DJUCE_MODULE_AVAILABLE_juce_gui_basics=1 -DJUCE_MODULE_AVAILABLE_juce_gui_extra=1 -DJUCE_MODULE_AVAILABLE_juce_opengl=1 -DJUCE_PROJUCER_VERSION=0x60001 -DJUCE_PUSH_NOTIFICATIONS=1 -DJUCE_PUSH_NOTIFICATIONS_ACTIVITY=\\\"com/rmsl/juce/JuceActivity\\\" -DJUCE_STANDALONE_APPLICATION=1 -DJUCE_STRICT_REFCOUNTEDPOINTER=1 -DJUCE_USE_DARK_SPLASH_SCREEN=1 -DNDEBUG=1 -Djuce_jni_EXPORTS -I../../../../../../../JuceLibraryCode -I/home/luke/audio_apps_dev/JUCE/modules -I/home/luke/Android/Sdk/ndk/21.0.6113669/sources/android/cpufeatures -I/home/luke/audio_apps_dev/JUCE/modules/juce_audio_devices/native/oboe/include  -g -DANDROID -fdata-sections -ffunction-sections -funwind-tables -fstack-protector-strong -no-canonical-prefixes -D_FORTIFY_SOURCE=2 -Wformat -Werror=format-security -fexceptions -frtti  -O2 -DNDEBUG -O3 -fPIC   -fsigned-char -std=c++14 -o CMakeFiles/juce_jni.dir/home/luke/audio_apps_dev/infra/infra/JuceLibraryCode/include_juce_audio_devices.cpp.o -c /home/luke/audio_apps_dev/infra/infra/JuceLibraryCode/include_juce_audio_devices.cpp",
  "file": "/home/luke/audio_apps_dev/infra/infra/JuceLibraryCode/include_juce_audio_devices.cpp"
},

{
  "directory": "/home/luke/audio_apps_dev/infra/infra/Builds/Android/app/.cxx/cmake/release_Release/arm64-v8a",
  "command": "/home/luke/Android/Sdk/ndk/21.0.6113669/toolchains/llvm/prebuilt/linux-x86_64/bin/clang++ --target=aarch64-none-linux-android21 --gcc-toolchain=/home/luke/Android/Sdk/ndk/21.0.6113669/toolchains/llvm/prebuilt/linux-x86_64 --sysroot=/home/luke/Android/Sdk/ndk/21.0.6113669/toolchains/llvm/prebuilt/linux-x86_64/sysroot  -DJUCER_ANDROIDSTUDIO_7F0E4A25=1 -DJUCE_ANDROID=1 -DJUCE_ANDROID_API_VERSION=16 -DJUCE_APP_VERSION=1.0.0 -DJUCE_APP_VERSION_HEX=0x10000 -DJUCE_DISPLAY_SPLASH_SCREEN=1 -DJUCE_GLOBAL_MODULE_SETTINGS_INCLUDED=1 -DJUCE_MODULE_AVAILABLE_juce_audio_basics=1 -DJUCE_MODULE_AVAILABLE_juce_audio_devices=1 -DJUCE_MODULE_AVAILABLE_juce_audio_formats=1 -DJUCE_MODULE_AVAILABLE_juce_audio_processors=1 -DJUCE_MODULE_AVAILABLE_juce_audio_utils=1 -DJUCE_MODULE_AVAILABLE_juce_core=1 -DJUCE_MODULE_AVAILABLE_juce_data_structures=1 -DJUCE_MODULE_AVAILABLE_juce_dsp=1 -DJUCE_MODULE_AVAILABLE_juce_events=1 -DJUCE_MODULE_AVAILABLE_juce_graphics=1 -DJUCE_MODULE_AVAILABLE_juce_gui_basics=1 -DJUCE_MODULE_AVAILABLE_juce_gui_extra=1 -DJUCE_MODULE_AVAILABLE_juce_opengl=1 -DJUCE_PROJUCER_VERSION=0x60001 -DJUCE_PUSH_NOTIFICATIONS=1 -DJUCE_PUSH_NOTIFICATIONS_ACTIVITY=\\\"com/rmsl/juce/JuceActivity\\\" -DJUCE_STANDALONE_APPLICATION=1 -DJUCE_STRICT_REFCOUNTEDPOINTER=1 -DJUCE_USE_DARK_SPLASH_SCREEN=1 -DNDEBUG=1 -Djuce_jni_EXPORTS -I../../../../../../../JuceLibraryCode -I/home/luke/audio_apps_dev/JUCE/modules -I/home/luke/Android/Sdk/ndk/21.0.6113669/sources/android/cpufeatures -I/home/luke/audio_apps_dev/JUCE/modules/juce_audio_devices/native/oboe/include  -g -DANDROID -fdata-sections -ffunction-sections -funwind-tables -fstack-protector-strong -no-canonical-prefixes -D_FORTIFY_SOURCE=2 -Wformat -Werror=format-security -fexceptions -frtti  -O2 -DNDEBUG -O3 -fPIC   -fsigned-char -std=c++14 -o CMakeFiles/juce_jni.dir/home/luke/audio_apps_dev/infra/infra/JuceLibraryCode/include_juce_audio_formats.cpp.o -c /home/luke/audio_apps_dev/infra/infra/JuceLibraryCode/include_juce_audio_formats.cpp",
  "file": "/home/luke/audio_apps_dev/infra/infra/JuceLibraryCode/include_juce_audio_formats.cpp"
},

{
  "directory": "/home/luke/audio_apps_dev/infra/infra/Builds/Android/app/.cxx/cmake/release_Release/arm64-v8a",
  "command": "/home/luke/Android/Sdk/ndk/21.0.6113669/toolchains/llvm/prebuilt/linux-x86_64/bin/clang++ --target=aarch64-none-linux-android21 --gcc-toolchain=/home/luke/Android/Sdk/ndk/21.0.6113669/toolchains/llvm/prebuilt/linux-x86_64 --sysroot=/home/luke/Android/Sdk/ndk/21.0.6113669/toolchains/llvm/prebuilt/linux-x86_64/sysroot  -DJUCER_ANDROIDSTUDIO_7F0E4A25=1 -DJUCE_ANDROID=1 -DJUCE_ANDROID_API_VERSION=16 -DJUCE_APP_VERSION=1.0.0 -DJUCE_APP_VERSION_HEX=0x10000 -DJUCE_DISPLAY_SPLASH_SCREEN=1 -DJUCE_GLOBAL_MODULE_SETTINGS_INCLUDED=1 -DJUCE_MODULE_AVAILABLE_juce_audio_basics=1 -DJUCE_MODULE_AVAILABLE_juce_audio_devices=1 -DJUCE_MODULE_AVAILABLE_juce_audio_formats=1 -DJUCE_MODULE_AVAILABLE_juce_audio_processors=1 -DJUCE_MODULE_AVAILABLE_juce_audio_utils=1 -DJUCE_MODULE_AVAILABLE_juce_core=1 -DJUCE_MODULE_AVAILABLE_juce_data_structures=1 -DJUCE_MODULE_AVAILABLE_juce_dsp=1 -DJUCE_MODULE_AVAILABLE_juce_events=1 -DJUCE_MODULE_AVAILABLE_juce_graphics=1 -DJUCE_MODULE_AVAILABLE_juce_gui_basics=1 -DJUCE_MODULE_AVAILABLE_juce_gui_extra=1 -DJUCE_MODULE_AVAILABLE_juce_opengl=1 -DJUCE_PROJUCER_VERSION=0x60001 -DJUCE_PUSH_NOTIFICATIONS=1 -DJUCE_PUSH_NOTIFICATIONS_ACTIVITY=\\\"com/rmsl/juce/JuceActivity\\\" -DJUCE_STANDALONE_APPLICATION=1 -DJUCE_STRICT_REFCOUNTEDPOINTER=1 -DJUCE_USE_DARK_SPLASH_SCREEN=1 -DNDEBUG=1 -Djuce_jni_EXPORTS -I../../../../../../../JuceLibraryCode -I/home/luke/audio_apps_dev/JUCE/modules -I/home/luke/Android/Sdk/ndk/21.0.6113669/sources/android/cpufeatures -I/home/luke/audio_apps_dev/JUCE/modules/juce_audio_devices/native/oboe/include  -g -DANDROID -fdata-sections -ffunction-sections -funwind-tables -fstack-protector-strong -no-canonical-prefixes -D_FORTIFY_SOURCE=2 -Wformat -Werror=format-security -fexceptions -frtti  -O2 -DNDEBUG -O3 -fPIC   -fsigned-char -std=c++14 -o CMakeFiles/juce_jni.dir/home/luke/audio_apps_dev/infra/infra/JuceLibraryCode/include_juce_audio_processors.cpp.o -c /home/luke/audio_apps_dev/infra/infra/JuceLibraryCode/include_juce_audio_processors.cpp",
  "file": "/home/luke/audio_apps_dev/infra/infra/JuceLibraryCode/include_juce_audio_processors.cpp"
},

{
  "directory": "/home/luke/audio_apps_dev/infra/infra/Builds/Android/app/.cxx/cmake/release_Release/arm64-v8a",
  "command": "/home/luke/Android/Sdk/ndk/21.0.6113669/toolchains/llvm/prebuilt/linux-x86_64/bin/clang++ --target=aarch64-none-linux-android21 --gcc-toolchain=/home/luke/Android/Sdk/ndk/21.0.6113669/toolchains/llvm/prebuilt/linux-x86_64 --sysroot=/home/luke/Android/Sdk/ndk/21.0.6113669/toolchains/llvm/prebuilt/linux-x86_64/sysroot  -DJUCER_ANDROIDSTUDIO_7F0E4A25=1 -DJUCE_ANDROID=1 -DJUCE_ANDROID_API_VERSION=16 -DJUCE_APP_VERSION=1.0.0 -DJUCE_APP_VERSION_HEX=0x10000 -DJUCE_DISPLAY_SPLASH_SCREEN=1 -DJUCE_GLOBAL_MODULE_SETTINGS_INCLUDED=1 -DJUCE_MODULE_AVAILABLE_juce_audio_basics=1 -DJUCE_MODULE_AVAILABLE_juce_audio_devices=1 -DJUCE_MODULE_AVAILABLE_juce_audio_formats=1 -DJUCE_MODULE_AVAILABLE_juce_audio_processors=1 -DJUCE_MODULE_AVAILABLE_juce_audio_utils=1 -DJUCE_MODULE_AVAILABLE_juce_core=1 -DJUCE_MODULE_AVAILABLE_juce_data_structures=1 -DJUCE_MODULE_AVAILABLE_juce_dsp=1 -DJUCE_MODULE_AVAILABLE_juce_events=1 -DJUCE_MODULE_AVAILABLE_juce_graphics=1 -DJUCE_MODULE_AVAILABLE_juce_gui_basics=1 -DJUCE_MODULE_AVAILABLE_juce_gui_extra=1 -DJUCE_MODULE_AVAILABLE_juce_opengl=1 -DJUCE_PROJUCER_VERSION=0x60001 -DJUCE_PUSH_NOTIFICATIONS=1 -DJUCE_PUSH_NOTIFICATIONS_ACTIVITY=\\\"com/rmsl/juce/JuceActivity\\\" -DJUCE_STANDALONE_APPLICATION=1 -DJUCE_STRICT_REFCOUNTEDPOINTER=1 -DJUCE_USE_DARK_SPLASH_SCREEN=1 -DNDEBUG=1 -Djuce_jni_EXPORTS -I../../../../../../../JuceLibraryCode -I/home/luke/audio_apps_dev/JUCE/modules -I/home/luke/Android/Sdk/ndk/21.0.6113669/sources/android/cpufeatures -I/home/luke/audio_apps_dev/JUCE/modules/juce_audio_devices/native/oboe/include  -g -DANDROID -fdata-sections -ffunction-sections -funwind-tables -fstack-protector-strong -no-canonical-prefixes -D_FORTIFY_SOURCE=2 -Wformat -Werror=format-security -fexceptions -frtti  -O2 -DNDEBUG -O3 -fPIC   -fsigned-char -std=c++14 -o CMakeFiles/juce_jni.dir/home/luke/audio_apps_dev/infra/infra/JuceLibraryCode/include_juce_audio_utils.cpp.o -c /home/luke/audio_apps_dev/infra/infra/JuceLibraryCode/include_juce_audio_utils.cpp",
  "file": "/home/luke/audio_apps_dev/infra/infra/JuceLibraryCode/include_juce_audio_utils.cpp"
},

{
  "directory": "/home/luke/audio_apps_dev/infra/infra/Builds/Android/app/.cxx/cmake/release_Release/arm64-v8a",
  "command": "/home/luke/Android/Sdk/ndk/21.0.6113669/toolchains/llvm/prebuilt/linux-x86_64/bin/clang++ --target=aarch64-none-linux-android21 --gcc-toolchain=/home/luke/Android/Sdk/ndk/21.0.6113669/toolchains/llvm/prebuilt/linux-x86_64 --sysroot=/home/luke/Android/Sdk/ndk/21.0.6113669/toolchains/llvm/prebuilt/linux-x86_64/sysroot  -DJUCER_ANDROIDSTUDIO_7F0E4A25=1 -DJUCE_ANDROID=1 -DJUCE_ANDROID_API_VERSION=16 -DJUCE_APP_VERSION=1.0.0 -DJUCE_APP_VERSION_HEX=0x10000 -DJUCE_DISPLAY_SPLASH_SCREEN=1 -DJUCE_GLOBAL_MODULE_SETTINGS_INCLUDED=1 -DJUCE_MODULE_AVAILABLE_juce_audio_basics=1 -DJUCE_MODULE_AVAILABLE_juce_audio_devices=1 -DJUCE_MODULE_AVAILABLE_juce_audio_formats=1 -DJUCE_MODULE_AVAILABLE_juce_audio_processors=1 -DJUCE_MODULE_AVAILABLE_juce_audio_utils=1 -DJUCE_MODULE_AVAILABLE_juce_core=1 -DJUCE_MODULE_AVAILABLE_juce_data_structures=1 -DJUCE_MODULE_AVAILABLE_juce_dsp=1 -DJUCE_MODULE_AVAILABLE_juce_events=1 -DJUCE_MODULE_AVAILABLE_juce_graphics=1 -DJUCE_MODULE_AVAILABLE_juce_gui_basics=1 -DJUCE_MODULE_AVAILABLE_juce_gui_extra=1 -DJUCE_MODULE_AVAILABLE_juce_opengl=1 -DJUCE_PROJUCER_VERSION=0x60001 -DJUCE_PUSH_NOTIFICATIONS=1 -DJUCE_PUSH_NOTIFICATIONS_ACTIVITY=\\\"com/rmsl/juce/JuceActivity\\\" -DJUCE_STANDALONE_APPLICATION=1 -DJUCE_STRICT_REFCOUNTEDPOINTER=1 -DJUCE_USE_DARK_SPLASH_SCREEN=1 -DNDEBUG=1 -Djuce_jni_EXPORTS -I../../../../../../../JuceLibraryCode -I/home/luke/audio_apps_dev/JUCE/modules -I/home/luke/Android/Sdk/ndk/21.0.6113669/sources/android/cpufeatures -I/home/luke/audio_apps_dev/JUCE/modules/juce_audio_devices/native/oboe/include  -g -DANDROID -fdata-sections -ffunction-sections -funwind-tables -fstack-protector-strong -no-canonical-prefixes -D_FORTIFY_SOURCE=2 -Wformat -Werror=format-security -fexceptions -frtti  -O2 -DNDEBUG -O3 -fPIC   -fsigned-char -std=c++14 -o CMakeFiles/juce_jni.dir/home/luke/audio_apps_dev/infra/infra/JuceLibraryCode/include_juce_core.cpp.o -c /home/luke/audio_apps_dev/infra/infra/JuceLibraryCode/include_juce_core.cpp",
  "file": "/home/luke/audio_apps_dev/infra/infra/JuceLibraryCode/include_juce_core.cpp"
},

{
  "directory": "/home/luke/audio_apps_dev/infra/infra/Builds/Android/app/.cxx/cmake/release_Release/arm64-v8a",
  "command": "/home/luke/Android/Sdk/ndk/21.0.6113669/toolchains/llvm/prebuilt/linux-x86_64/bin/clang++ --target=aarch64-none-linux-android21 --gcc-toolchain=/home/luke/Android/Sdk/ndk/21.0.6113669/toolchains/llvm/prebuilt/linux-x86_64 --sysroot=/home/luke/Android/Sdk/ndk/21.0.6113669/toolchains/llvm/prebuilt/linux-x86_64/sysroot  -DJUCER_ANDROIDSTUDIO_7F0E4A25=1 -DJUCE_ANDROID=1 -DJUCE_ANDROID_API_VERSION=16 -DJUCE_APP_VERSION=1.0.0 -DJUCE_APP_VERSION_HEX=0x10000 -DJUCE_DISPLAY_SPLASH_SCREEN=1 -DJUCE_GLOBAL_MODULE_SETTINGS_INCLUDED=1 -DJUCE_MODULE_AVAILABLE_juce_audio_basics=1 -DJUCE_MODULE_AVAILABLE_juce_audio_devices=1 -DJUCE_MODULE_AVAILABLE_juce_audio_formats=1 -DJUCE_MODULE_AVAILABLE_juce_audio_processors=1 -DJUCE_MODULE_AVAILABLE_juce_audio_utils=1 -DJUCE_MODULE_AVAILABLE_juce_core=1 -DJUCE_MODULE_AVAILABLE_juce_data_structures=1 -DJUCE_MODULE_AVAILABLE_juce_dsp=1 -DJUCE_MODULE_AVAILABLE_juce_events=1 -DJUCE_MODULE_AVAILABLE_juce_graphics=1 -DJUCE_MODULE_AVAILABLE_juce_gui_basics=1 -DJUCE_MODULE_AVAILABLE_juce_gui_extra=1 -DJUCE_MODULE_AVAILABLE_juce_opengl=1 -DJUCE_PROJUCER_VERSION=0x60001 -DJUCE_PUSH_NOTIFICATIONS=1 -DJUCE_PUSH_NOTIFICATIONS_ACTIVITY=\\\"com/rmsl/juce/JuceActivity\\\" -DJUCE_STANDALONE_APPLICATION=1 -DJUCE_STRICT_REFCOUNTEDPOINTER=1 -DJUCE_USE_DARK_SPLASH_SCREEN=1 -DNDEBUG=1 -Djuce_jni_EXPORTS -I../../../../../../../JuceLibraryCode -I/home/luke/audio_apps_dev/JUCE/modules -I/home/luke/Android/Sdk/ndk/21.0.6113669/sources/android/cpufeatures -I/home/luke/audio_apps_dev/JUCE/modules/juce_audio_devices/native/oboe/include  -g -DANDROID -fdata-sections -ffunction-sections -funwind-tables -fstack-protector-strong -no-canonical-prefixes -D_FORTIFY_SOURCE=2 -Wformat -Werror=format-security -fexceptions -frtti  -O2 -DNDEBUG -O3 -fPIC   -fsigned-char -std=c++14 -o CMakeFiles/juce_jni.dir/home/luke/audio_apps_dev/infra/infra/JuceLibraryCode/include_juce_data_structures.cpp.o -c /home/luke/audio_apps_dev/infra/infra/JuceLibraryCode/include_juce_data_structures.cpp",
  "file": "/home/luke/audio_apps_dev/infra/infra/JuceLibraryCode/include_juce_data_structures.cpp"
},

{
  "directory": "/home/luke/audio_apps_dev/infra/infra/Builds/Android/app/.cxx/cmake/release_Release/arm64-v8a",
  "command": "/home/luke/Android/Sdk/ndk/21.0.6113669/toolchains/llvm/prebuilt/linux-x86_64/bin/clang++ --target=aarch64-none-linux-android21 --gcc-toolchain=/home/luke/Android/Sdk/ndk/21.0.6113669/toolchains/llvm/prebuilt/linux-x86_64 --sysroot=/home/luke/Android/Sdk/ndk/21.0.6113669/toolchains/llvm/prebuilt/linux-x86_64/sysroot  -DJUCER_ANDROIDSTUDIO_7F0E4A25=1 -DJUCE_ANDROID=1 -DJUCE_ANDROID_API_VERSION=16 -DJUCE_APP_VERSION=1.0.0 -DJUCE_APP_VERSION_HEX=0x10000 -DJUCE_DISPLAY_SPLASH_SCREEN=1 -DJUCE_GLOBAL_MODULE_SETTINGS_INCLUDED=1 -DJUCE_MODULE_AVAILABLE_juce_audio_basics=1 -DJUCE_MODULE_AVAILABLE_juce_audio_devices=1 -DJUCE_MODULE_AVAILABLE_juce_audio_formats=1 -DJUCE_MODULE_AVAILABLE_juce_audio_processors=1 -DJUCE_MODULE_AVAILABLE_juce_audio_utils=1 -DJUCE_MODULE_AVAILABLE_juce_core=1 -DJUCE_MODULE_AVAILABLE_juce_data_structures=1 -DJUCE_MODULE_AVAILABLE_juce_dsp=1 -DJUCE_MODULE_AVAILABLE_juce_events=1 -DJUCE_MODULE_AVAILABLE_juce_graphics=1 -DJUCE_MODULE_AVAILABLE_juce_gui_basics=1 -DJUCE_MODULE_AVAILABLE_juce_gui_extra=1 -DJUCE_MODULE_AVAILABLE_juce_opengl=1 -DJUCE_PROJUCER_VERSION=0x60001 -DJUCE_PUSH_NOTIFICATIONS=1 -DJUCE_PUSH_NOTIFICATIONS_ACTIVITY=\\\"com/rmsl/juce/JuceActivity\\\" -DJUCE_STANDALONE_APPLICATION=1 -DJUCE_STRICT_REFCOUNTEDPOINTER=1 -DJUCE_USE_DARK_SPLASH_SCREEN=1 -DNDEBUG=1 -Djuce_jni_EXPORTS -I../../../../../../../JuceLibraryCode -I/home/luke/audio_apps_dev/JUCE/modules -I/home/luke/Android/Sdk/ndk/21.0.6113669/sources/android/cpufeatures -I/home/luke/audio_apps_dev/JUCE/modules/juce_audio_devices/native/oboe/include  -g -DANDROID -fdata-sections -ffunction-sections -funwind-tables -fstack-protector-strong -no-canonical-prefixes -D_FORTIFY_SOURCE=2 -Wformat -Werror=format-security -fexceptions -frtti  -O2 -DNDEBUG -O3 -fPIC   -fsigned-char -std=c++14 -o CMakeFiles/juce_jni.dir/home/luke/audio_apps_dev/infra/infra/JuceLibraryCode/include_juce_dsp.cpp.o -c /home/luke/audio_apps_dev/infra/infra/JuceLibraryCode/include_juce_dsp.cpp",
  "file": "/home/luke/audio_apps_dev/infra/infra/JuceLibraryCode/include_juce_dsp.cpp"
},

{
  "directory": "/home/luke/audio_apps_dev/infra/infra/Builds/Android/app/.cxx/cmake/release_Release/arm64-v8a",
  "command": "/home/luke/Android/Sdk/ndk/21.0.6113669/toolchains/llvm/prebuilt/linux-x86_64/bin/clang++ --target=aarch64-none-linux-android21 --gcc-toolchain=/home/luke/Android/Sdk/ndk/21.0.6113669/toolchains/llvm/prebuilt/linux-x86_64 --sysroot=/home/luke/Android/Sdk/ndk/21.0.6113669/toolchains/llvm/prebuilt/linux-x86_64/sysroot  -DJUCER_ANDROIDSTUDIO_7F0E4A25=1 -DJUCE_ANDROID=1 -DJUCE_ANDROID_API_VERSION=16 -DJUCE_APP_VERSION=1.0.0 -DJUCE_APP_VERSION_HEX=0x10000 -DJUCE_DISPLAY_SPLASH_SCREEN=1 -DJUCE_GLOBAL_MODULE_SETTINGS_INCLUDED=1 -DJUCE_MODULE_AVAILABLE_juce_audio_basics=1 -DJUCE_MODULE_AVAILABLE_juce_audio_devices=1 -DJUCE_MODULE_AVAILABLE_juce_audio_formats=1 -DJUCE_MODULE_AVAILABLE_juce_audio_processors=1 -DJUCE_MODULE_AVAILABLE_juce_audio_utils=1 -DJUCE_MODULE_AVAILABLE_juce_core=1 -DJUCE_MODULE_AVAILABLE_juce_data_structures=1 -DJUCE_MODULE_AVAILABLE_juce_dsp=1 -DJUCE_MODULE_AVAILABLE_juce_events=1 -DJUCE_MODULE_AVAILABLE_juce_graphics=1 -DJUCE_MODULE_AVAILABLE_juce_gui_basics=1 -DJUCE_MODULE_AVAILABLE_juce_gui_extra=1 -DJUCE_MODULE_AVAILABLE_juce_opengl=1 -DJUCE_PROJUCER_VERSION=0x60001 -DJUCE_PUSH_NOTIFICATIONS=1 -DJUCE_PUSH_NOTIFICATIONS_ACTIVITY=\\\"com/rmsl/juce/JuceActivity\\\" -DJUCE_STANDALONE_APPLICATION=1 -DJUCE_STRICT_REFCOUNTEDPOINTER=1 -DJUCE_USE_DARK_SPLASH_SCREEN=1 -DNDEBUG=1 -Djuce_jni_EXPORTS -I../../../../../../../JuceLibraryCode -I/home/luke/audio_apps_dev/JUCE/modules -I/home/luke/Android/Sdk/ndk/21.0.6113669/sources/android/cpufeatures -I/home/luke/audio_apps_dev/JUCE/modules/juce_audio_devices/native/oboe/include  -g -DANDROID -fdata-sections -ffunction-sections -funwind-tables -fstack-protector-strong -no-canonical-prefixes -D_FORTIFY_SOURCE=2 -Wformat -Werror=format-security -fexceptions -frtti  -O2 -DNDEBUG -O3 -fPIC   -fsigned-char -std=c++14 -o CMakeFiles/juce_jni.dir/home/luke/audio_apps_dev/infra/infra/JuceLibraryCode/include_juce_events.cpp.o -c /home/luke/audio_apps_dev/infra/infra/JuceLibraryCode/include_juce_events.cpp",
  "file": "/home/luke/audio_apps_dev/infra/infra/JuceLibraryCode/include_juce_events.cpp"
},

{
  "directory": "/home/luke/audio_apps_dev/infra/infra/Builds/Android/app/.cxx/cmake/release_Release/arm64-v8a",
  "command": "/home/luke/Android/Sdk/ndk/21.0.6113669/toolchains/llvm/prebuilt/linux-x86_64/bin/clang++ --target=aarch64-none-linux-android21 --gcc-toolchain=/home/luke/Android/Sdk/ndk/21.0.6113669/toolchains/llvm/prebuilt/linux-x86_64 --sysroot=/home/luke/Android/Sdk/ndk/21.0.6113669/toolchains/llvm/prebuilt/linux-x86_64/sysroot  -DJUCER_ANDROIDSTUDIO_7F0E4A25=1 -DJUCE_ANDROID=1 -DJUCE_ANDROID_API_VERSION=16 -DJUCE_APP_VERSION=1.0.0 -DJUCE_APP_VERSION_HEX=0x10000 -DJUCE_DISPLAY_SPLASH_SCREEN=1 -DJUCE_GLOBAL_MODULE_SETTINGS_INCLUDED=1 -DJUCE_MODULE_AVAILABLE_juce_audio_basics=1 -DJUCE_MODULE_AVAILABLE_juce_audio_devices=1 -DJUCE_MODULE_AVAILABLE_juce_audio_formats=1 -DJUCE_MODULE_AVAILABLE_juce_audio_processors=1 -DJUCE_MODULE_AVAILABLE_juce_audio_utils=1 -DJUCE_MODULE_AVAILABLE_juce_core=1 -DJUCE_MODULE_AVAILABLE_juce_data_structures=1 -DJUCE_MODULE_AVAILABLE_juce_dsp=1 -DJUCE_MODULE_AVAILABLE_juce_events=1 -DJUCE_MODULE_AVAILABLE_juce_graphics=1 -DJUCE_MODULE_AVAILABLE_juce_gui_basics=1 -DJUCE_MODULE_AVAILABLE_juce_gui_extra=1 -DJUCE_MODULE_AVAILABLE_juce_opengl=1 -DJUCE_PROJUCER_VERSION=0x60001 -DJUCE_PUSH_NOTIFICATIONS=1 -DJUCE_PUSH_NOTIFICATIONS_ACTIVITY=\\\"com/rmsl/juce/JuceActivity\\\" -DJUCE_STANDALONE_APPLICATION=1 -DJUCE_STRICT_REFCOUNTEDPOINTER=1 -DJUCE_USE_DARK_SPLASH_SCREEN=1 -DNDEBUG=1 -Djuce_jni_EXPORTS -I../../../../../../../JuceLibraryCode -I/home/luke/audio_apps_dev/JUCE/modules -I/home/luke/Android/Sdk/ndk/21.0.6113669/sources/android/cpufeatures -I/home/luke/audio_apps_dev/JUCE/modules/juce_audio_devices/native/oboe/include  -g -DANDROID -fdata-sections -ffunction-sections -funwind-tables -fstack-protector-strong -no-canonical-prefixes -D_FORTIFY_SOURCE=2 -Wformat -Werror=format-security -fexceptions -frtti  -O2 -DNDEBUG -O3 -fPIC   -fsigned-char -std=c++14 -o CMakeFiles/juce_jni.dir/home/luke/audio_apps_dev/infra/infra/JuceLibraryCode/include_juce_graphics.cpp.o -c /home/luke/audio_apps_dev/infra/infra/JuceLibraryCode/include_juce_graphics.cpp",
  "file": "/home/luke/audio_apps_dev/infra/infra/JuceLibraryCode/include_juce_graphics.cpp"
},

{
  "directory": "/home/luke/audio_apps_dev/infra/infra/Builds/Android/app/.cxx/cmake/release_Release/arm64-v8a",
  "command": "/home/luke/Android/Sdk/ndk/21.0.6113669/toolchains/llvm/prebuilt/linux-x86_64/bin/clang++ --target=aarch64-none-linux-android21 --gcc-toolchain=/home/luke/Android/Sdk/ndk/21.0.6113669/toolchains/llvm/prebuilt/linux-x86_64 --sysroot=/home/luke/Android/Sdk/ndk/21.0.6113669/toolchains/llvm/prebuilt/linux-x86_64/sysroot  -DJUCER_ANDROIDSTUDIO_7F0E4A25=1 -DJUCE_ANDROID=1 -DJUCE_ANDROID_API_VERSION=16 -DJUCE_APP_VERSION=1.0.0 -DJUCE_APP_VERSION_HEX=0x10000 -DJUCE_DISPLAY_SPLASH_SCREEN=1 -DJUCE_GLOBAL_MODULE_SETTINGS_INCLUDED=1 -DJUCE_MODULE_AVAILABLE_juce_audio_basics=1 -DJUCE_MODULE_AVAILABLE_juce_audio_devices=1 -DJUCE_MODULE_AVAILABLE_juce_audio_formats=1 -DJUCE_MODULE_AVAILABLE_juce_audio_processors=1 -DJUCE_MODULE_AVAILABLE_juce_audio_utils=1 -DJUCE_MODULE_AVAILABLE_juce_core=1 -DJUCE_MODULE_AVAILABLE_juce_data_structures=1 -DJUCE_MODULE_AVAILABLE_juce_dsp=1 -DJUCE_MODULE_AVAILABLE_juce_events=1 -DJUCE_MODULE_AVAILABLE_juce_graphics=1 -DJUCE_MODULE_AVAILABLE_juce_gui_basics=1 -DJUCE_MODULE_AVAILABLE_juce_gui_extra=1 -DJUCE_MODULE_AVAILABLE_juce_opengl=1 -DJUCE_PROJUCER_VERSION=0x60001 -DJUCE_PUSH_NOTIFICATIONS=1 -DJUCE_PUSH_NOTIFICATIONS_ACTIVITY=\\\"com/rmsl/juce/JuceActivity\\\" -DJUCE_STANDALONE_APPLICATION=1 -DJUCE_STRICT_REFCOUNTEDPOINTER=1 -DJUCE_USE_DARK_SPLASH_SCREEN=1 -DNDEBUG=1 -Djuce_jni_EXPORTS -I../../../../../../../JuceLibraryCode -I/home/luke/audio_apps_dev/JUCE/modules -I/home/luke/Android/Sdk/ndk/21.0.6113669/sources/android/cpufeatures -I/home/luke/audio_apps_dev/JUCE/modules/juce_audio_devices/native/oboe/include  -g -DANDROID -fdata-sections -ffunction-sections -funwind-tables -fstack-protector-strong -no-canonical-prefixes -D_FORTIFY_SOURCE=2 -Wformat -Werror=format-security -fexceptions -frtti  -O2 -DNDEBUG -O3 -fPIC   -fsigned-char -std=c++14 -o CMakeFiles/juce_jni.dir/home/luke/audio_apps_dev/infra/infra/JuceLibraryCode/include_juce_gui_basics.cpp.o -c /home/luke/audio_apps_dev/infra/infra/JuceLibraryCode/include_juce_gui_basics.cpp",
  "file": "/home/luke/audio_apps_dev/infra/infra/JuceLibraryCode/include_juce_gui_basics.cpp"
},

{
  "directory": "/home/luke/audio_apps_dev/infra/infra/Builds/Android/app/.cxx/cmake/release_Release/arm64-v8a",
  "command": "/home/luke/Android/Sdk/ndk/21.0.6113669/toolchains/llvm/prebuilt/linux-x86_64/bin/clang++ --target=aarch64-none-linux-android21 --gcc-toolchain=/home/luke/Android/Sdk/ndk/21.0.6113669/toolchains/llvm/prebuilt/linux-x86_64 --sysroot=/home/luke/Android/Sdk/ndk/21.0.6113669/toolchains/llvm/prebuilt/linux-x86_64/sysroot  -DJUCER_ANDROIDSTUDIO_7F0E4A25=1 -DJUCE_ANDROID=1 -DJUCE_ANDROID_API_VERSION=16 -DJUCE_APP_VERSION=1.0.0 -DJUCE_APP_VERSION_HEX=0x10000 -DJUCE_DISPLAY_SPLASH_SCREEN=1 -DJUCE_GLOBAL_MODULE_SETTINGS_INCLUDED=1 -DJUCE_MODULE_AVAILABLE_juce_audio_basics=1 -DJUCE_MODULE_AVAILABLE_juce_audio_devices=1 -DJUCE_MODULE_AVAILABLE_juce_audio_formats=1 -DJUCE_MODULE_AVAILABLE_juce_audio_processors=1 -DJUCE_MODULE_AVAILABLE_juce_audio_utils=1 -DJUCE_MODULE_AVAILABLE_juce_core=1 -DJUCE_MODULE_AVAILABLE_juce_data_structures=1 -DJUCE_MODULE_AVAILABLE_juce_dsp=1 -DJUCE_MODULE_AVAILABLE_juce_events=1 -DJUCE_MODULE_AVAILABLE_juce_graphics=1 -DJUCE_MODULE_AVAILABLE_juce_gui_basics=1 -DJUCE_MODULE_AVAILABLE_juce_gui_extra=1 -DJUCE_MODULE_AVAILABLE_juce_opengl=1 -DJUCE_PROJUCER_VERSION=0x60001 -DJUCE_PUSH_NOTIFICATIONS=1 -DJUCE_PUSH_NOTIFICATIONS_ACTIVITY=\\\"com/rmsl/juce/JuceActivity\\\" -DJUCE_STANDALONE_APPLICATION=1 -DJUCE_STRICT_REFCOUNTEDPOINTER=1 -DJUCE_USE_DARK_SPLASH_SCREEN=1 -DNDEBUG=1 -Djuce_jni_EXPORTS -I../../../../../../../JuceLibraryCode -I/home/luke/audio_apps_dev/JUCE/modules -I/home/luke/Android/Sdk/ndk/21.0.6113669/sources/android/cpufeatures -I/home/luke/audio_apps_dev/JUCE/modules/juce_audio_devices/native/oboe/include  -g -DANDROID -fdata-sections -ffunction-sections -funwind-tables -fstack-protector-strong -no-canonical-prefixes -D_FORTIFY_SOURCE=2 -Wformat -Werror=format-security -fexceptions -frtti  -O2 -DNDEBUG -O3 -fPIC   -fsigned-char -std=c++14 -o CMakeFiles/juce_jni.dir/home/luke/audio_apps_dev/infra/infra/JuceLibraryCode/include_juce_gui_extra.cpp.o -c /home/luke/audio_apps_dev/infra/infra/JuceLibraryCode/include_juce_gui_extra.cpp",
  "file": "/home/luke/audio_apps_dev/infra/infra/JuceLibraryCode/include_juce_gui_extra.cpp"
},

{
  "directory": "/home/luke/audio_apps_dev/infra/infra/Builds/Android/app/.cxx/cmake/release_Release/arm64-v8a",
  "command": "/home/luke/Android/Sdk/ndk/21.0.6113669/toolchains/llvm/prebuilt/linux-x86_64/bin/clang++ --target=aarch64-none-linux-android21 --gcc-toolchain=/home/luke/Android/Sdk/ndk/21.0.6113669/toolchains/llvm/prebuilt/linux-x86_64 --sysroot=/home/luke/Android/Sdk/ndk/21.0.6113669/toolchains/llvm/prebuilt/linux-x86_64/sysroot  -DJUCER_ANDROIDSTUDIO_7F0E4A25=1 -DJUCE_ANDROID=1 -DJUCE_ANDROID_API_VERSION=16 -DJUCE_APP_VERSION=1.0.0 -DJUCE_APP_VERSION_HEX=0x10000 -DJUCE_DISPLAY_SPLASH_SCREEN=1 -DJUCE_GLOBAL_MODULE_SETTINGS_INCLUDED=1 -DJUCE_MODULE_AVAILABLE_juce_audio_basics=1 -DJUCE_MODULE_AVAILABLE_juce_audio_devices=1 -DJUCE_MODULE_AVAILABLE_juce_audio_formats=1 -DJUCE_MODULE_AVAILABLE_juce_audio_processors=1 -DJUCE_MODULE_AVAILABLE_juce_audio_utils=1 -DJUCE_MODULE_AVAILABLE_juce_core=1 -DJUCE_MODULE_AVAILABLE_juce_data_structures=1 -DJUCE_MODULE_AVAILABLE_juce_dsp=1 -DJUCE_MODULE_AVAILABLE_juce_events=1 -DJUCE_MODULE_AVAILABLE_juce_graphics=1 -DJUCE_MODULE_AVAILABLE_juce_gui_basics=1 -DJUCE_MODULE_AVAILABLE_juce_gui_extra=1 -DJUCE_MODULE_AVAILABLE_juce_opengl=1 -DJUCE_PROJUCER_VERSION=0x60001 -DJUCE_PUSH_NOTIFICATIONS=1 -DJUCE_PUSH_NOTIFICATIONS_ACTIVITY=\\\"com/rmsl/juce/JuceActivity\\\" -DJUCE_STANDALONE_APPLICATION=1 -DJUCE_STRICT_REFCOUNTEDPOINTER=1 -DJUCE_USE_DARK_SPLASH_SCREEN=1 -DNDEBUG=1 -Djuce_jni_EXPORTS -I../../../../../../../JuceLibraryCode -I/home/luke/audio_apps_dev/JUCE/modules -I/home/luke/Android/Sdk/ndk/21.0.6113669/sources/android/cpufeatures -I/home/luke/audio_apps_dev/JUCE/modules/juce_audio_devices/native/oboe/include  -g -DANDROID -fdata-sections -ffunction-sections -funwind-tables -fstack-protector-strong -no-canonical-prefixes -D_FORTIFY_SOURCE=2 -Wformat -Werror=format-security -fexceptions -frtti  -O2 -DNDEBUG -O3 -fPIC   -fsigned-char -std=c++14 -o CMakeFiles/juce_jni.dir/home/luke/audio_apps_dev/infra/infra/JuceLibraryCode/include_juce_opengl.cpp.o -c /home/luke/audio_apps_dev/infra/infra/JuceLibraryCode/include_juce_opengl.cpp",
  "file": "/home/luke/audio_apps_dev/infra/infra/JuceLibraryCode/include_juce_opengl.cpp"
},

{
  "directory": "/home/luke/audio_apps_dev/infra/infra/Builds/Android/app/.cxx/cmake/release_Release/arm64-v8a",
  "command": "/home/luke/Android/Sdk/ndk/21.0.6113669/toolchains/llvm/prebuilt/linux-x86_64/bin/clang --target=aarch64-none-linux-android21 --gcc-toolchain=/home/luke/Android/Sdk/ndk/21.0.6113669/toolchains/llvm/prebuilt/linux-x86_64 --sysroot=/home/luke/Android/Sdk/ndk/21.0.6113669/toolchains/llvm/prebuilt/linux-x86_64/sysroot -DJUCER_ANDROIDSTUDIO_7F0E4A25=1 -DJUCE_ANDROID=1 -DJUCE_ANDROID_API_VERSION=16 -DJUCE_APP_VERSION=1.0.0 -DJUCE_APP_VERSION_HEX=0x10000 -DJUCE_DISPLAY_SPLASH_SCREEN=1 -DJUCE_GLOBAL_MODULE_SETTINGS_INCLUDED=1 -DJUCE_MODULE_AVAILABLE_juce_audio_basics=1 -DJUCE_MODULE_AVAILABLE_juce_audio_devices=1 -DJUCE_MODULE_AVAILABLE_juce_audio_formats=1 -DJUCE_MODULE_AVAILABLE_juce_audio_processors=1 -DJUCE_MODULE_AVAILABLE_juce_audio_utils=1 -DJUCE_MODULE_AVAILABLE_juce_core=1 -DJUCE_MODULE_AVAILABLE_juce_data_structures=1 -DJUCE_MODULE_AVAILABLE_juce_dsp=1 -DJUCE_MODULE_AVAILABLE_juce_events=1 -DJUCE_MODULE_AVAILABLE_juce_graphics=1 -DJUCE_MODULE_AVAILABLE_juce_gui_basics=1 -DJUCE_MODULE_AVAILABLE_juce_gui_extra=1 -DJUCE_MODULE_AVAILABLE_juce_opengl=1 -DJUCE_PROJUCER_VERSION=0x60001 -DJUCE_PUSH_NOTIFICATIONS=1 -DJUCE_PUSH_NOTIFICATIONS_ACTIVITY=\\\"com/rmsl/juce/JuceActivity\\\" -DJUCE_STANDALONE_APPLICATION=1 -DJUCE_STRICT_REFCOUNTEDPOINTER=1 -DJUCE_USE_DARK_SPLASH_SCREEN=1 -DNDEBUG=1 -I../../../../../../../JuceLibraryCode -I/home/luke/audio_apps_dev/JUCE/modules -I/home/luke/Android/Sdk/ndk/21.0.6113669/sources/android/cpufeatures  -g -DANDROID -fdata-sections -ffunction-sections -funwind-tables -fstack-protector-strong -no-canonical-prefixes -D_FORTIFY_SOURCE=2 -Wformat -Werror=format-security  -O2 -DNDEBUG -O3 -fPIC   -Wno-sign-conversion -Wno-gnu-statement-expression -o CMakeFiles/cpufeatures.dir/home/luke/Android/Sdk/ndk/21.0.6113669/sources/android/cpufeatures/cpu-features.c.o   -c /home/luke/Android/Sdk/ndk/21.0.6113669/sources/android/cpufeatures/cpu-features.c",
  "file": "/home/luke/Android/Sdk/ndk/21.0.6113669/sources/android/cpufeatures/cpu-features.c"
},

{
  "directory": "/home/luke/audio_apps_dev/infra/infra/Builds/Android/app/.cxx/cmake/release_Release/arm64-v8a",
  "command": "/home/luke/Android/Sdk/ndk/21.0.6113669/toolchains/llvm/prebuilt/linux-x86_64/bin/clang++ --target=aarch64-none-linux-android21 --gcc-toolchain=/home/luke/Android/Sdk/ndk/21.0.6113669/toolchains/llvm/prebuilt/linux-x86_64 --sysroot=/home/luke/Android/Sdk/ndk/21.0.6113669/toolchains/llvm/prebuilt/linux-x86_64/sysroot   -I/home/luke/audio_apps_dev/JUCE/modules/juce_audio_devices/native/oboe/src -I/home/luke/audio_apps_dev/JUCE/modules/juce_audio_devices/native/oboe/include  -g -DANDROID -fdata-sections -ffunction-sections -funwind-tables -fstack-protector-strong -no-canonical-prefixes -D_FORTIFY_SOURCE=2 -Wformat -Werror=format-security -fexceptions -frtti  -O2 -DNDEBUG -O3 -fPIC   -Ofast -std=c++14 -o oboe/CMakeFiles/oboe.dir/src/aaudio/AAudioLoader.cpp.o -c /home/luke/audio_apps_dev/JUCE/modules/juce_audio_devices/native/oboe/src/aaudio/AAudioLoader.cpp",
  "file": "/home/luke/audio_apps_dev/JUCE/modules/juce_audio_devices/native/oboe/src/aaudio/AAudioLoader.cpp"
},

{
  "directory": "/home/luke/audio_apps_dev/infra/infra/Builds/Android/app/.cxx/cmake/release_Release/arm64-v8a",
  "command": "/home/luke/Android/Sdk/ndk/21.0.6113669/toolchains/llvm/prebuilt/linux-x86_64/bin/clang++ --target=aarch64-none-linux-android21 --gcc-toolchain=/home/luke/Android/Sdk/ndk/21.0.6113669/toolchains/llvm/prebuilt/linux-x86_64 --sysroot=/home/luke/Android/Sdk/ndk/21.0.6113669/toolchains/llvm/prebuilt/linux-x86_64/sysroot   -I/home/luke/audio_apps_dev/JUCE/modules/juce_audio_devices/native/oboe/src -I/home/luke/audio_apps_dev/JUCE/modules/juce_audio_devices/native/oboe/include  -g -DANDROID -fdata-sections -ffunction-sections -funwind-tables -fstack-protector-strong -no-canonical-prefixes -D_FORTIFY_SOURCE=2 -Wformat -Werror=format-security -fexceptions -frtti  -O2 -DNDEBUG -O3 -fPIC   -Ofast -std=c++14 -o oboe/CMakeFiles/oboe.dir/src/aaudio/AudioStreamAAudio.cpp.o -c /home/luke/audio_apps_dev/JUCE/modules/juce_audio_devices/native/oboe/src/aaudio/AudioStreamAAudio.cpp",
  "file": "/home/luke/audio_apps_dev/JUCE/modules/juce_audio_devices/native/oboe/src/aaudio/AudioStreamAAudio.cpp"
},

{
  "directory": "/home/luke/audio_apps_dev/infra/infra/Builds/Android/app/.cxx/cmake/release_Release/arm64-v8a",
  "command": "/home/luke/Android/Sdk/ndk/21.0.6113669/toolchains/llvm/prebuilt/linux-x86_64/bin/clang++ --target=aarch64-none-linux-android21 --gcc-toolchain=/home/luke/Android/Sdk/ndk/21.0.6113669/toolchains/llvm/prebuilt/linux-x86_64 --sysroot=/home/luke/Android/Sdk/ndk/21.0.6113669/toolchains/llvm/prebuilt/linux-x86_64/sysroot   -I/home/luke/audio_apps_dev/JUCE/modules/juce_audio_devices/native/oboe/src -I/home/luke/audio_apps_dev/JUCE/modules/juce_audio_devices/native/oboe/include  -g -DANDROID -fdata-sections -ffunction-sections -funwind-tables -fstack-protector-strong -no-canonical-prefixes -D_FORTIFY_SOURCE=2 -Wformat -Werror=format-security -fexceptions -frtti  -O2 -DNDEBUG -O3 -fPIC   -Ofast -std=c++14 -o oboe/CMakeFiles/oboe.dir/src/common/AudioSourceCaller.cpp.o -c /home/luke/audio_apps_dev/JUCE/modules/juce_audio_devices/native/oboe/src/common/AudioSourceCaller.cpp",
  "file": "/home/luke/audio_apps_dev/JUCE/modules/juce_audio_devices/native/oboe/src/common/AudioSourceCaller.cpp"
},

{
  "directory": "/home/luke/audio_apps_dev/infra/infra/Builds/Android/app/.cxx/cmake/release_Release/arm64-v8a",
  "command": "/home/luke/Android/Sdk/ndk/21.0.6113669/toolchains/llvm/prebuilt/linux-x86_64/bin/clang++ --target=aarch64-none-linux-android21 --gcc-toolchain=/home/luke/Android/Sdk/ndk/21.0.6113669/toolchains/llvm/prebuilt/linux-x86_64 --sysroot=/home/luke/Android/Sdk/ndk/21.0.6113669/toolchains/llvm/prebuilt/linux-x86_64/sysroot   -I/home/luke/audio_apps_dev/JUCE/modules/juce_audio_devices/native/oboe/src -I/home/luke/audio_apps_dev/JUCE/modules/juce_audio_devices/native/oboe/include  -g -DANDROID -fdata-sections -ffunction-sections -funwind-tables -fstack-protector-strong -no-canonical-prefixes -D_FORTIFY_SOURCE=2 -Wformat -Werror=format-security -fexceptions -frtti  -O2 -DNDEBUG -O3 -fPIC   -Ofast -std=c++14 -o oboe/CMakeFiles/oboe.dir/src/common/AudioStream.cpp.o -c /home/luke/audio_apps_dev/JUCE/modules/juce_audio_devices/native/oboe/src/common/AudioStream.cpp",
  "file": "/home/luke/audio_apps_dev/JUCE/modules/juce_audio_devices/native/oboe/src/common/AudioStream.cpp"
},

{
  "directory": "/home/luke/audio_apps_dev/infra/infra/Builds/Android/app/.cxx/cmake/release_Release/arm64-v8a",
  "command": "/home/luke/Android/Sdk/ndk/21.0.6113669/toolchains/llvm/prebuilt/linux-x86_64/bin/clang++ --target=aarch64-none-linux-android21 --gcc-toolchain=/home/luke/Android/Sdk/ndk/21.0.6113669/toolchains/llvm/prebuilt/linux-x86_64 --sysroot=/home/luke/Android/Sdk/ndk/21.0.6113669/toolchains/llvm/prebuilt/linux-x86_64/sysroot   -I/home/luke/audio_apps_dev/JUCE/modules/juce_audio_devices/native/oboe/src -I/home/luke/audio_apps_dev/JUCE/modules/juce_audio_devices/native/oboe/include  -g -DANDROID -fdata-sections -ffunction-sections -funwind-tables -fstack-protector-strong -no-canonical-prefixes -D_FORTIFY_SOURCE=2 -Wformat -Werror=format-security -fexceptions -frtti  -O2 -DNDEBUG -O3 -fPIC   -Ofast -std=c++14 -o oboe/CMakeFiles/oboe.dir/src/common/AudioStreamBuilder.cpp.o -c /home/luke/audio_apps_dev/JUCE/modules/juce_audio_devices/native/oboe/src/common/AudioStreamBuilder.cpp",
  "file": "/home/luke/audio_apps_dev/JUCE/modules/juce_audio_devices/native/oboe/src/common/AudioStreamBuilder.cpp"
},

{
  "directory": "/home/luke/audio_apps_dev/infra/infra/Builds/Android/app/.cxx/cmake/release_Release/arm64-v8a",
  "command": "/home/luke/Android/Sdk/ndk/21.0.6113669/toolchains/llvm/prebuilt/linux-x86_64/bin/clang++ --target=aarch64-none-linux-android21 --gcc-toolchain=/home/luke/Android/Sdk/ndk/21.0.6113669/toolchains/llvm/prebuilt/linux-x86_64 --sysroot=/home/luke/Android/Sdk/ndk/21.0.6113669/toolchains/llvm/prebuilt/linux-x86_64/sysroot   -I/home/luke/audio_apps_dev/JUCE/modules/juce_audio_devices/native/oboe/src -I/home/luke/audio_apps_dev/JUCE/modules/juce_audio_devices/native/oboe/include  -g -DANDROID -fdata-sections -ffunction-sections -funwind-tables -fstack-protector-strong -no-canonical-prefixes -D_FORTIFY_SOURCE=2 -Wformat -Werror=format-security -fexceptions -frtti  -O2 -DNDEBUG -O3 -fPIC   -Ofast -std=c++14 -o oboe/CMakeFiles/oboe.dir/src/common/DataConversionFlowGraph.cpp.o -c /home/luke/audio_apps_dev/JUCE/modules/juce_audio_devices/native/oboe/src/common/DataConversionFlowGraph.cpp",
  "file": "/home/luke/audio_apps_dev/JUCE/modules/juce_audio_devices/native/oboe/src/common/DataConversionFlowGraph.cpp"
},

{
  "directory": "/home/luke/audio_apps_dev/infra/infra/Builds/Android/app/.cxx/cmake/release_Release/arm64-v8a",
  "command": "/home/luke/Android/Sdk/ndk/21.0.6113669/toolchains/llvm/prebuilt/linux-x86_64/bin/clang++ --target=aarch64-none-linux-android21 --gcc-toolchain=/home/luke/Android/Sdk/ndk/21.0.6113669/toolchains/llvm/prebuilt/linux-x86_64 --sysroot=/home/luke/Android/Sdk/ndk/21.0.6113669/toolchains/llvm/prebuilt/linux-x86_64/sysroot   -I/home/luke/audio_apps_dev/JUCE/modules/juce_audio_devices/native/oboe/src -I/home/luke/audio_apps_dev/JUCE/modules/juce_audio_devices/native/oboe/include  -g -DANDROID -fdata-sections -ffunction-sections -funwind-tables -fstack-protector-strong -no-canonical-prefixes -D_FORTIFY_SOURCE=2 -Wformat -Werror=format-security -fexceptions -frtti  -O2 -DNDEBUG -O3 -fPIC   -Ofast -std=c++14 -o oboe/CMakeFiles/oboe.dir/src/common/FilterAudioStream.cpp.o -c /home/luke/audio_apps_dev/JUCE/modules/juce_audio_devices/native/oboe/src/common/FilterAudioStream.cpp",
  "file": "/home/luke/audio_apps_dev/JUCE/modules/juce_audio_devices/native/oboe/src/common/FilterAudioStream.cpp"
},

{
  "directory": "/home/luke/audio_apps_dev/infra/infra/Builds/Android/app/.cxx/cmake/release_Release/arm64-v8a",
  "command": "/home/luke/Android/Sdk/ndk/21.0.6113669/toolchains/llvm/prebuilt/linux-x86_64/bin/clang++ --target=aarch64-none-linux-android21 --gcc-toolchain=/home/luke/Android/Sdk/ndk/21.0.6113669/toolchains/llvm/prebuilt/linux-x86_64 --sysroot=/home/luke/Android/Sdk/ndk/21.0.6113669/toolchains/llvm/prebuilt/linux-x86_64/sysroot   -I/home/luke/audio_apps_dev/JUCE/modules/juce_audio_devices/native/oboe/src -I/home/luke/audio_apps_dev/JUCE/modules/juce_audio_devices/native/oboe/include  -g -DANDROID -fdata-sections -ffunction-sections -funwind-tables -fstack-protector-strong -no-canonical-prefixes -D_FORTIFY_SOURCE=2 -Wformat -Werror=format-security -fexceptions -frtti  -O2 -DNDEBUG -O3 -fPIC   -Ofast -std=c++14 -o oboe/CMakeFiles/oboe.dir/src/common/FixedBlockAdapter.cpp.o -c /home/luke/audio_apps_dev/JUCE/modules/juce_audio_devices/native/oboe/src/common/FixedBlockAdapter.cpp",
  "file": "/home/luke/audio_apps_dev/JUCE/modules/juce_audio_devices/native/oboe/src/common/FixedBlockAdapter.cpp"
},

{
  "directory": "/home/luke/audio_apps_dev/infra/infra/Builds/Android/app/.cxx/cmake/release_Release/arm64-v8a",
  "command": "/home/luke/Android/Sdk/ndk/21.0.6113669/toolchains/llvm/prebuilt/linux-x86_64/bin/clang++ --target=aarch64-none-linux-android21 --gcc-toolchain=/home/luke/Android/Sdk/ndk/21.0.6113669/toolchains/llvm/prebuilt/linux-x86_64 --sysroot=/home/luke/Android/Sdk/ndk/21.0.6113669/toolchains/llvm/prebuilt/linux-x86_64/sysroot   -I/home/luke/audio_apps_dev/JUCE/modules/juce_audio_devices/native/oboe/src -I/home/luke/audio_apps_dev/JUCE/modules/juce_audio_devices/native/oboe/include  -g -DANDROID -fdata-sections -ffunction-sections -funwind-tables -fstack-protector-strong -no-canonical-prefixes -D_FORTIFY_SOURCE=2 -Wformat -Werror=format-security -fexceptions -frtti  -O2 -DNDEBUG -O3 -fPIC   -Ofast -std=c++14 -o oboe/CMakeFiles/oboe.dir/src/common/FixedBlockReader.cpp.o -c /home/luke/audio_apps_dev/JUCE/modules/juce_audio_devices/native/oboe/src/common/FixedBlockReader.cpp",
  "file": "/home/luke/audio_apps_dev/JUCE/modules/juce_audio_devices/native/oboe/src/common/FixedBlockReader.cpp"
},

{
  "directory": "/home/luke/audio_apps_dev/infra/infra/Builds/Android/app/.cxx/cmake/release_Release/arm64-v8a",
  "command": "/home/luke/Android/Sdk/ndk/21.0.6113669/toolchains/llvm/prebuilt/linux-x86_64/bin/clang++ --target=aarch64-none-linux-android21 --gcc-toolchain=/home/luke/Android/Sdk/ndk/21.0.6113669/toolchains/llvm/prebuilt/linux-x86_64 --sysroot=/home/luke/Android/Sdk/ndk/21.0.6113669/toolchains/llvm/prebuilt/linux-x86_64/sysroot   -I/home/luke/audio_apps_dev/JUCE/modules/juce_audio_devices/native/oboe/src -I/home/luke/audio_apps_dev/JUCE/modules/juce_audio_devices/native/oboe/include  -g -DANDROID -fdata-sections -ffunction-sections -funwind-tables -fstack-protector-strong -no-canonical-prefixes -D_FORTIFY_SOURCE=2 -Wformat -Werror=format-security -fexceptions -frtti  -O2 -DNDEBUG -O3 -fPIC   -Ofast -std=c++14 -o oboe/CMakeFiles/oboe.dir/src/common/FixedBlockWriter.cpp.o -c /home/luke/audio_apps_dev/JUCE/modules/juce_audio_devices/native/oboe/src/common/FixedBlockWriter.cpp",
  "file": "/home/luke/audio_apps_dev/JUCE/modules/juce_audio_devices/native/oboe/src/common/FixedBlockWriter.cpp"
},

{
  "directory": "/home/luke/audio_apps_dev/infra/infra/Builds/Android/app/.cxx/cmake/release_Release/arm64-v8a",
  "command": "/home/luke/Android/Sdk/ndk/21.0.6113669/toolchains/llvm/prebuilt/linux-x86_64/bin/clang++ --target=aarch64-none-linux-android21 --gcc-toolchain=/home/luke/Android/Sdk/ndk/21.0.6113669/toolchains/llvm/prebuilt/linux-x86_64 --sysroot=/home/luke/Android/Sdk/ndk/21.0.6113669/toolchains/llvm/prebuilt/linux-x86_64/sysroot   -I/home/luke/audio_apps_dev/JUCE/modules/juce_audio_devices/native/oboe/src -I/home/luke/audio_apps_dev/JUCE/modules/juce_audio_devices/native/oboe/include  -g -DANDROID -fdata-sections -ffunction-sections -funwind-tables -fstack-protector-strong -no-canonical-prefixes -D_FORTIFY_SOURCE=2 -Wformat -Werror=format-security -fexceptions -frtti  -O2 -DNDEBUG -O3 -fPIC   -Ofast -std=c++14 -o oboe/CMakeFiles/oboe.dir/src/common/LatencyTuner.cpp.o -c /home/luke/audio_apps_dev/JUCE/modules/juce_audio_devices/native/oboe/src/common/LatencyTuner.cpp",
  "file": "/home/luke/audio_apps_dev/JUCE/modules/juce_audio_devices/native/oboe/src/common/LatencyTuner.cpp"
},

{
  "directory": "/home/luke/audio_apps_dev/infra/infra/Builds/Android/app/.cxx/cmake/release_Release/arm64-v8a",
  "command": "/home/luke/Android/Sdk/ndk/21.0.6113669/toolchains/llvm/prebuilt/linux-x86_64/bin/clang++ --target=aarch64-none-linux-android21 --gcc-toolchain=/home/luke/Android/Sdk/ndk/21.0.6113669/toolchains/llvm/prebuilt/linux-x86_64 --sysroot=/home/luke/Android/Sdk/ndk/21.0.6113669/toolchains/llvm/prebuilt/linux-x86_64/sysroot   -I/home/luke/audio_apps_dev/JUCE/modules/juce_audio_devices/native/oboe/src -I/home/luke/audio_apps_dev/JUCE/modules/juce_audio_devices/native/oboe/include  -g -DANDROID -fdata-sections -ffunction-sections -funwind-tables -fstack-protector-strong -no-canonical-prefixes -D_FORTIFY_SOURCE=2 -Wformat -Werror=format-security -fexceptions -frtti  -O2 -DNDEBUG -O3 -fPIC   -Ofast -std=c++14 -o oboe/CMakeFiles/oboe.dir/src/common/SourceFloatCaller.cpp.o -c /home/luke/audio_apps_dev/JUCE/modules/juce_audio_devices/native/oboe/src/common/SourceFloatCaller.cpp",
  "file": "/home/luke/audio_apps_dev/JUCE/modules/juce_audio_devices/native/oboe/src/common/SourceFloatCaller.cpp"
},

{
  "directory": "/home/luke/audio_apps_dev/infra/infra/Builds/Android/app/.cxx/cmake/release_Release/arm64-v8a",
  "command": "/home/luke/Android/Sdk/ndk/21.0.6113669/toolchains/llvm/prebuilt/linux-x86_64/bin/clang++ --target=aarch64-none-linux-android21 --gcc-toolchain=/home/luke/Android/Sdk/ndk/21.0.6113669/toolchains/llvm/prebuilt/linux-x86_64 --sysroot=/home/luke/Android/Sdk/ndk/21.0.6113669/toolchains/llvm/prebuilt/linux-x86_64/sysroot   -I/home/luke/audio_apps_dev/JUCE/modules/juce_audio_devices/native/oboe/src -I/home/luke/audio_apps_dev/JUCE/modules/juce_audio_devices/native/oboe/include  -g -DANDROID -fdata-sections -ffunction-sections -funwind-tables -fstack-protector-strong -no-canonical-prefixes -D_FORTIFY_SOURCE=2 -Wformat -Werror=format-security -fexceptions -frtti  -O2 -DNDEBUG -O3 -fPIC   -Ofast -std=c++14 -o oboe/CMakeFiles/oboe.dir/src/common/SourceI16Caller.cpp.o -c /home/luke/audio_apps_dev/JUCE/modules/juce_audio_devices/native/oboe/src/common/SourceI16Caller.cpp",
  "file": "/home/luke/audio_apps_dev/JUCE/modules/juce_audio_devices/native/oboe/src/common/SourceI16Caller.cpp"
},

{
  "directory": "/home/luke/audio_apps_dev/infra/infra/Builds/Android/app/.cxx/cmake/release_Release/arm64-v8a",
  "command": "/home/luke/Android/Sdk/ndk/21.0.6113669/toolchains/llvm/prebuilt/linux-x86_64/bin/clang++ --target=aarch64-none-linux-android21 --gcc-toolchain=/home/luke/Android/Sdk/ndk/21.0.6113669/toolchains/llvm/prebuilt/linux-x86_64 --sysroot=/home/luke/Android/Sdk/ndk/21.0.6113669/toolchains/llvm/prebuilt/linux-x86_64/sysroot   -I/home/luke/audio_apps_dev/JUCE/modules/juce_audio_devices/native/oboe/src -I/home/luke/audio_apps_dev/JUCE/modules/juce_audio_devices/native/oboe/include  -g -DANDROID -fdata-sections -ffunction-sections -funwind-tables -fstack-protector-strong -no-canonical-prefixes -D_FORTIFY_SOURCE=2 -Wformat -Werror=format-security -fexceptions -frtti  -O2 -DNDEBUG -O3 -fPIC   -Ofast -std=c++14 -o oboe/CMakeFiles/oboe.dir/src/common/Utilities.cpp.o -c /home/luke/audio_apps_dev/JUCE/modules/juce_audio_devices/native/oboe/src/common/Utilities.cpp",
  "file": "/home/luke/audio_apps_dev/JUCE/modules/juce_audio_devices/native/oboe/src/common/Utilities.cpp"
},

{
  "directory": "/home/luke/audio_apps_dev/infra/infra/Builds/Android/app/.cxx/cmake/release_Release/arm64-v8a",
  "command": "/home/luke/Android/Sdk/ndk/21.0.6113669/toolchains/llvm/prebuilt/linux-x86_64/bin/clang++ --target=aarch64-none-linux-android21 --gcc-toolchain=/home/luke/Android/Sdk/ndk/21.0.6113669/toolchains/llvm/prebuilt/linux-x86_64 --sysroot=/home/luke/Android/Sdk/ndk/21.0.6113669/toolchains/llvm/prebuilt/linux-x86_64/sysroot   -I/home/luke/audio_apps_dev/JUCE/modules/juce_audio_devices/native/oboe/src -I/home/luke/audio_apps_dev/JUCE/modules/juce_audio_devices/native/oboe/include  -g -DANDROID -fdata-sections -ffunction-sections -funwind-tables -fstack-protector-strong -no-canonical-prefixes -D_FORTIFY_SOURCE=2 -Wformat -Werror=format-security -fexceptions -frtti  -O2 -DNDEBUG -O3 -fPIC   -Ofast -std=c++14 -o oboe/CMakeFiles/oboe.dir/src/common/QuirksManager.cpp.o -c /home/luke/audio_apps_dev/JUCE/modules/juce_audio_devices/native/oboe/src/common/QuirksManager.cpp",
  "file": "/home/luke/audio_apps_dev/JUCE/modules/juce_audio_devices/native/oboe/src/common/QuirksManager.cpp"
},

{
  "directory": "/home/luke/audio_apps_dev/infra/infra/Builds/Android/app/.cxx/cmake/release_Release/arm64-v8a",
  "command": "/home/luke/Android/Sdk/ndk/21.0.6113669/toolchains/llvm/prebuilt/linux-x86_64/bin/clang++ --target=aarch64-none-linux-android21 --gcc-toolchain=/home/luke/Android/Sdk/ndk/21.0.6113669/toolchains/llvm/prebuilt/linux-x86_64 --sysroot=/home/luke/Android/Sdk/ndk/21.0.6113669/toolchains/llvm/prebuilt/linux-x86_64/sysroot   -I/home/luke/audio_apps_dev/JUCE/modules/juce_audio_devices/native/oboe/src -I/home/luke/audio_apps_dev/JUCE/modules/juce_audio_devices/native/oboe/include  -g -DANDROID -fdata-sections -ffunction-sections -funwind-tables -fstack-protector-strong -no-canonical-prefixes -D_FORTIFY_SOURCE=2 -Wformat -Werror=format-security -fexceptions -frtti  -O2 -DNDEBUG -O3 -fPIC   -Ofast -std=c++14 -o oboe/CMakeFiles/oboe.dir/src/fifo/FifoBuffer.cpp.o -c /home/luke/audio_apps_dev/JUCE/modules/juce_audio_devices/native/oboe/src/fifo/FifoBuffer.cpp",
  "file": "/home/luke/audio_apps_dev/JUCE/modules/juce_audio_devices/native/oboe/src/fifo/FifoBuffer.cpp"
},

{
  "directory": "/home/luke/audio_apps_dev/infra/infra/Builds/Android/app/.cxx/cmake/release_Release/arm64-v8a",
  "command": "/home/luke/Android/Sdk/ndk/21.0.6113669/toolchains/llvm/prebuilt/linux-x86_64/bin/clang++ --target=aarch64-none-linux-android21 --gcc-toolchain=/home/luke/Android/Sdk/ndk/21.0.6113669/toolchains/llvm/prebuilt/linux-x86_64 --sysroot=/home/luke/Android/Sdk/ndk/21.0.6113669/toolchains/llvm/prebuilt/linux-x86_64/sysroot   -I/home/luke/audio_apps_dev/JUCE/modules/juce_audio_devices/native/oboe/src -I/home/luke/audio_apps_dev/JUCE/modules/juce_audio_devices/native/oboe/include  -g -DANDROID -fdata-sections -ffunction-sections -funwind-tables -fstack-protector-strong -no-canonical-prefixes -D_FORTIFY_SOURCE=2 -Wformat -Werror=format-security -fexceptions -frtti  -O2 -DNDEBUG -O3 -fPIC   -Ofast -std=c++14 -o oboe/CMakeFiles/oboe.dir/src/fifo/FifoController.cpp.o -c /home/luke/audio_apps_dev/JUCE/modules/juce_audio_devices/native/oboe/src/fifo/FifoController.cpp",
  "file": "/home/luke/audio_apps_dev/JUCE/modules/juce_audio_devices/native/oboe/src/fifo/FifoController.cpp"
},

{
  "directory": "/home/luke/audio_apps_dev/infra/infra/Builds/Android/app/.cxx/cmake/release_Release/arm64-v8a",
  "command": "/home/luke/Android/Sdk/ndk/21.0.6113669/toolchains/llvm/prebuilt/linux-x86_64/bin/clang++ --target=aarch64-none-linux-android21 --gcc-toolchain=/home/luke/Android/Sdk/ndk/21.0.6113669/toolchains/llvm/prebuilt/linux-x86_64 --sysroot=/home/luke/Android/Sdk/ndk/21.0.6113669/toolchains/llvm/prebuilt/linux-x86_64/sysroot   -I/home/luke/audio_apps_dev/JUCE/modules/juce_audio_devices/native/oboe/src -I/home/luke/audio_apps_dev/JUCE/modules/juce_audio_devices/native/oboe/include  -g -DANDROID -fdata-sections -ffunction-sections -funwind-tables -fstack-protector-strong -no-canonical-prefixes -D_FORTIFY_SOURCE=2 -Wformat -Werror=format-security -fexceptions -frtti  -O2 -DNDEBUG -O3 -fPIC   -Ofast -std=c++14 -o oboe/CMakeFiles/oboe.dir/src/fifo/FifoControllerBase.cpp.o -c /home/luke/audio_apps_dev/JUCE/modules/juce_audio_devices/native/oboe/src/fifo/FifoControllerBase.cpp",
  "file": "/home/luke/audio_apps_dev/JUCE/modules/juce_audio_devices/native/oboe/src/fifo/FifoControllerBase.cpp"
},

{
  "directory": "/home/luke/audio_apps_dev/infra/infra/Builds/Android/app/.cxx/cmake/release_Release/arm64-v8a",
  "command": "/home/luke/Android/Sdk/ndk/21.0.6113669/toolchains/llvm/prebuilt/linux-x86_64/bin/clang++ --target=aarch64-none-linux-android21 --gcc-toolchain=/home/luke/Android/Sdk/ndk/21.0.6113669/toolchains/llvm/prebuilt/linux-x86_64 --sysroot=/home/luke/Android/Sdk/ndk/21.0.6113669/toolchains/llvm/prebuilt/linux-x86_64/sysroot   -I/home/luke/audio_apps_dev/JUCE/modules/juce_audio_devices/native/oboe/src -I/home/luke/audio_apps_dev/JUCE/modules/juce_audio_devices/native/oboe/include  -g -DANDROID -fdata-sections -ffunction-sections -funwind-tables -fstack-protector-strong -no-canonical-prefixes -D_FORTIFY_SOURCE=2 -Wformat -Werror=format-security -fexceptions -frtti  -O2 -DNDEBUG -O3 -fPIC   -Ofast -std=c++14 -o oboe/CMakeFiles/oboe.dir/src/fifo/FifoControllerIndirect.cpp.o -c /home/luke/audio_apps_dev/JUCE/modules/juce_audio_devices/native/oboe/src/fifo/FifoControllerIndirect.cpp",
  "file": "/home/luke/audio_apps_dev/JUCE/modules/juce_audio_devices/native/oboe/src/fifo/FifoControllerIndirect.cpp"
},

{
  "directory": "/home/luke/audio_apps_dev/infra/infra/Builds/Android/app/.cxx/cmake/release_Release/arm64-v8a",
  "command": "/home/luke/Android/Sdk/ndk/21.0.6113669/toolchains/llvm/prebuilt/linux-x86_64/bin/clang++ --target=aarch64-none-linux-android21 --gcc-toolchain=/home/luke/Android/Sdk/ndk/21.0.6113669/toolchains/llvm/prebuilt/linux-x86_64 --sysroot=/home/luke/Android/Sdk/ndk/21.0.6113669/toolchains/llvm/prebuilt/linux-x86_64/sysroot   -I/home/luke/audio_apps_dev/JUCE/modules/juce_audio_devices/native/oboe/src -I/home/luke/audio_apps_dev/JUCE/modules/juce_audio_devices/native/oboe/include  -g -DANDROID -fdata-sections -ffunction-sections -funwind-tables -fstack-protector-strong -no-canonical-prefixes -D_FORTIFY_SOURCE=2 -Wformat -Werror=format-security -fexceptions -frtti  -O2 -DNDEBUG -O3 -fPIC   -Ofast -std=c++14 -o oboe/CMakeFiles/oboe.dir/src/flowgraph/FlowGraphNode.cpp.o -c /home/luke/audio_apps_dev/JUCE/modules/juce_audio_devices/native/oboe/src/flowgraph/FlowGraphNode.cpp",
  "file": "/home/luke/audio_apps_dev/JUCE/modules/juce_audio_devices/native/oboe/src/flowgraph/FlowGraphNode.cpp"
},

{
  "directory": "/home/luke/audio_apps_dev/infra/infra/Builds/Android/app/.cxx/cmake/release_Release/arm64-v8a",
  "command": "/home/luke/Android/Sdk/ndk/21.0.6113669/toolchains/llvm/prebuilt/linux-x86_64/bin/clang++ --target=aarch64-none-linux-android21 --gcc-toolchain=/home/luke/Android/Sdk/ndk/21.0.6113669/toolchains/llvm/prebuilt/linux-x86_64 --sysroot=/home/luke/Android/Sdk/ndk/21.0.6113669/toolchains/llvm/prebuilt/linux-x86_64/sysroot   -I/home/luke/audio_apps_dev/JUCE/modules/juce_audio_devices/native/oboe/src -I/home/luke/audio_apps_dev/JUCE/modules/juce_audio_devices/native/oboe/include  -g -DANDROID -fdata-sections -ffunction-sections -funwind-tables -fstack-protector-strong -no-canonical-prefixes -D_FORTIFY_SOURCE=2 -Wformat -Werror=format-security -fexceptions -frtti  -O2 -DNDEBUG -O3 -fPIC   -Ofast -std=c++14 -o oboe/CMakeFiles/oboe.dir/src/flowgraph/ClipToRange.cpp.o -c /home/luke/audio_apps_dev/JUCE/modules/juce_audio_devices/native/oboe/src/flowgraph/ClipToRange.cpp",
  "file": "/home/luke/audio_apps_dev/JUCE/modules/juce_audio_devices/native/oboe/src/flowgraph/ClipToRange.cpp"
},

{
  "directory": "/home/luke/audio_apps_dev/infra/infra/Builds/Android/app/.cxx/cmake/release_Release/arm64-v8a",
  "command": "/home/luke/Android/Sdk/ndk/21.0.6113669/toolchains/llvm/prebuilt/linux-x86_64/bin/clang++ --target=aarch64-none-linux-android21 --gcc-toolchain=/home/luke/Android/Sdk/ndk/21.0.6113669/toolchains/llvm/prebuilt/linux-x86_64 --sysroot=/home/luke/Android/Sdk/ndk/21.0.6113669/toolchains/llvm/prebuilt/linux-x86_64/sysroot   -I/home/luke/audio_apps_dev/JUCE/modules/juce_audio_devices/native/oboe/src -I/home/luke/audio_apps_dev/JUCE/modules/juce_audio_devices/native/oboe/include  -g -DANDROID -fdata-sections -ffunction-sections -funwind-tables -fstack-protector-strong -no-canonical-prefixes -D_FORTIFY_SOURCE=2 -Wformat -Werror=format-security -fexceptions -frtti  -O2 -DNDEBUG -O3 -fPIC   -Ofast -std=c++14 -o oboe/CMakeFiles/oboe.dir/src/flowgraph/ManyToMultiConverter.cpp.o -c /home/luke/audio_apps_dev/JUCE/modules/juce_audio_devices/native/oboe/src/flowgraph/ManyToMultiConverter.cpp",
  "file": "/home/luke/audio_apps_dev/JUCE/modules/juce_audio_devices/native/oboe/src/flowgraph/ManyToMultiConverter.cpp"
},

{
  "directory": "/home/luke/audio_apps_dev/infra/infra/Builds/Android/app/.cxx/cmake/release_Release/arm64-v8a",
  "command": "/home/luke/Android/Sdk/ndk/21.0.6113669/toolchains/llvm/prebuilt/linux-x86_64/bin/clang++ --target=aarch64-none-linux-android21 --gcc-toolchain=/home/luke/Android/Sdk/ndk/21.0.6113669/toolchains/llvm/prebuilt/linux-x86_64 --sysroot=/home/luke/Android/Sdk/ndk/21.0.6113669/toolchains/llvm/prebuilt/linux-x86_64/sysroot   -I/home/luke/audio_apps_dev/JUCE/modules/juce_audio_devices/native/oboe/src -I/home/luke/audio_apps_dev/JUCE/modules/juce_audio_devices/native/oboe/include  -g -DANDROID -fdata-sections -ffunction-sections -funwind-tables -fstack-protector-strong -no-canonical-prefixes -D_FORTIFY_SOURCE=2 -Wformat -Werror=format-security -fexceptions -frtti  -O2 -DNDEBUG -O3 -fPIC   -Ofast -std=c++14 -o oboe/CMakeFiles/oboe.dir/src/flowgraph/MonoToMultiConverter.cpp.o -c /home/luke/audio_apps_dev/JUCE/modules/juce_audio_devices/native/oboe/src/flowgraph/MonoToMultiConverter.cpp",
  "file": "/home/luke/audio_apps_dev/JUCE/modules/juce_audio_devices/native/oboe/src/flowgraph/MonoToMultiConverter.cpp"
},

{
  "directory": "/home/luke/audio_apps_dev/infra/infra/Builds/Android/app/.cxx/cmake/release_Release/arm64-v8a",
  "command": "/home/luke/Android/Sdk/ndk/21.0.6113669/toolchains/llvm/prebuilt/linux-x86_64/bin/clang++ --target=aarch64-none-linux-android21 --gcc-toolchain=/home/luke/Android/Sdk/ndk/21.0.6113669/toolchains/llvm/prebuilt/linux-x86_64 --sysroot=/home/luke/Android/Sdk/ndk/21.0.6113669/toolchains/llvm/prebuilt/linux-x86_64/sysroot   -I/home/luke/audio_apps_dev/JUCE/modules/juce_audio_devices/native/oboe/src -I/home/luke/audio_apps_dev/JUCE/modules/juce_audio_devices/native/oboe/include  -g -DANDROID -fdata-sections -ffunction-sections -funwind-tables -fstack-protector-strong -no-canonical-prefixes -D_FORTIFY_SOURCE=2 -Wformat -Werror=format-security -fexceptions -frtti  -O2 -DNDEBUG -O3 -fPIC   -Ofast -std=c++14 -o oboe/CMakeFiles/oboe.dir/src/flowgraph/RampLinear.cpp.o -c /home/luke/audio_apps_dev/JUCE/modules/juce_audio_devices/native/oboe/src/flowgraph/RampLinear.cpp",
  "file": "/home/luke/audio_apps_dev/JUCE/modules/juce_audio_devices/native/oboe/src/flowgraph/RampLinear.cpp"
},

{
  "directory": "/home/luke/audio_apps_dev/infra/infra/Builds/Android/app/.cxx/cmake/release_Release/arm64-v8a",
  "command": "/home/luke/Android/Sdk/ndk/21.0.6113669/toolchains/llvm/prebuilt/linux-x86_64/bin/clang++ --target=aarch64-none-linux-android21 --gcc-toolchain=/home/luke/Android/Sdk/ndk/21.0.6113669/toolchains/llvm/prebuilt/linux-x86_64 --sysroot=/home/luke/Android/Sdk/ndk/21.0.6113669/toolchains/llvm/prebuilt/linux-x86_64/sysroot   -I/home/luke/audio_apps_dev/JUCE/modules/juce_audio_devices/native/oboe/src -I/home/luke/audio_apps_dev/JUCE/modules/juce_audio_devices/native/oboe/include  -g -DANDROID -fdata-sections -ffunction-sections -funwind-tables -fstack-protector-strong -no-canonical-prefixes -D_FORTIFY_SOURCE=2 -Wformat -Werror=format-security -fexceptions -frtti  -O2 -DNDEBUG -O3 -fPIC   -Ofast -std=c++14 -o oboe/CMakeFiles/oboe.dir/src/flowgraph/SampleRateConverter.cpp.o -c /home/luke/audio_apps_dev/JUCE/modules/juce_audio_devices/native/oboe/src/flowgraph/SampleRateConverter.cpp",
  "file": "/home/luke/audio_apps_dev/JUCE/modules/juce_audio_devices/native/oboe/src/flowgraph/SampleRateConverter.cpp"
},

{
  "directory": "/home/luke/audio_apps_dev/infra/infra/Builds/Android/app/.cxx/cmake/release_Release/arm64-v8a",
  "command": "/home/luke/Android/Sdk/ndk/21.0.6113669/toolchains/llvm/prebuilt/linux-x86_64/bin/clang++ --target=aarch64-none-linux-android21 --gcc-toolchain=/home/luke/Android/Sdk/ndk/21.0.6113669/toolchains/llvm/prebuilt/linux-x86_64 --sysroot=/home/luke/Android/Sdk/ndk/21.0.6113669/toolchains/llvm/prebuilt/linux-x86_64/sysroot   -I/home/luke/audio_apps_dev/JUCE/modules/juce_audio_devices/native/oboe/src -I/home/luke/audio_apps_dev/JUCE/modules/juce_audio_devices/native/oboe/include  -g -DANDROID -fdata-sections -ffunction-sections -funwind-tables -fstack-protector-strong -no-canonical-prefixes -D_FORTIFY_SOURCE=2 -Wformat -Werror=format-security -fexceptions -frtti  -O2 -DNDEBUG -O3 -fPIC   -Ofast -std=c++14 -o oboe/CMakeFiles/oboe.dir/src/flowgraph/SinkFloat.cpp.o -c /home/luke/audio_apps_dev/JUCE/modules/juce_audio_devices/native/oboe/src/flowgraph/SinkFloat.cpp",
  "file": "/home/luke/audio_apps_dev/JUCE/modules/juce_audio_devices/native/oboe/src/flowgraph/SinkFloat.cpp"
},

{
  "directory": "/home/luke/audio_apps_dev/infra/infra/Builds/Android/app/.cxx/cmake/release_Release/arm64-v8a",
  "command": "/home/luke/Android/Sdk/ndk/21.0.6113669/toolchains/llvm/prebuilt/linux-x86_64/bin/clang++ --target=aarch64-none-linux-android21 --gcc-toolchain=/home/luke/Android/Sdk/ndk/21.0.6113669/toolchains/llvm/prebuilt/linux-x86_64 --sysroot=/home/luke/Android/Sdk/ndk/21.0.6113669/toolchains/llvm/prebuilt/linux-x86_64/sysroot   -I/home/luke/audio_apps_dev/JUCE/modules/juce_audio_devices/native/oboe/src -I/home/luke/audio_apps_dev/JUCE/modules/juce_audio_devices/native/oboe/include  -g -DANDROID -fdata-sections -ffunction-sections -funwind-tables -fstack-protector-strong -no-canonical-prefixes -D_FORTIFY_SOURCE=2 -Wformat -Werror=format-security -fexceptions -frtti  -O2 -DNDEBUG -O3 -fPIC   -Ofast -std=c++14 -o oboe/CMakeFiles/oboe.dir/src/flowgraph/SinkI16.cpp.o -c /home/luke/audio_apps_dev/JUCE/modules/juce_audio_devices/native/oboe/src/flowgraph/SinkI16.cpp",
  "file": "/home/luke/audio_apps_dev/JUCE/modules/juce_audio_devices/native/oboe/src/flowgraph/SinkI16.cpp"
},

{
  "directory": "/home/luke/audio_apps_dev/infra/infra/Builds/Android/app/.cxx/cmake/release_Release/arm64-v8a",
  "command": "/home/luke/Android/Sdk/ndk/21.0.6113669/toolchains/llvm/prebuilt/linux-x86_64/bin/clang++ --target=aarch64-none-linux-android21 --gcc-toolchain=/home/luke/Android/Sdk/ndk/21.0.6113669/toolchains/llvm/prebuilt/linux-x86_64 --sysroot=/home/luke/Android/Sdk/ndk/21.0.6113669/toolchains/llvm/prebuilt/linux-x86_64/sysroot   -I/home/luke/audio_apps_dev/JUCE/modules/juce_audio_devices/native/oboe/src -I/home/luke/audio_apps_dev/JUCE/modules/juce_audio_devices/native/oboe/include  -g -DANDROID -fdata-sections -ffunction-sections -funwind-tables -fstack-protector-strong -no-canonical-prefixes -D_FORTIFY_SOURCE=2 -Wformat -Werror=format-security -fexceptions -frtti  -O2 -DNDEBUG -O3 -fPIC   -Ofast -std=c++14 -o oboe/CMakeFiles/oboe.dir/src/flowgraph/SinkI24.cpp.o -c /home/luke/audio_apps_dev/JUCE/modules/juce_audio_devices/native/oboe/src/flowgraph/SinkI24.cpp",
  "file": "/home/luke/audio_apps_dev/JUCE/modules/juce_audio_devices/native/oboe/src/flowgraph/SinkI24.cpp"
},

{
  "directory": "/home/luke/audio_apps_dev/infra/infra/Builds/Android/app/.cxx/cmake/release_Release/arm64-v8a",
  "command": "/home/luke/Android/Sdk/ndk/21.0.6113669/toolchains/llvm/prebuilt/linux-x86_64/bin/clang++ --target=aarch64-none-linux-android21 --gcc-toolchain=/home/luke/Android/Sdk/ndk/21.0.6113669/toolchains/llvm/prebuilt/linux-x86_64 --sysroot=/home/luke/Android/Sdk/ndk/21.0.6113669/toolchains/llvm/prebuilt/linux-x86_64/sysroot   -I/home/luke/audio_apps_dev/JUCE/modules/juce_audio_devices/native/oboe/src -I/home/luke/audio_apps_dev/JUCE/modules/juce_audio_devices/native/oboe/include  -g -DANDROID -fdata-sections -ffunction-sections -funwind-tables -fstack-protector-strong -no-canonical-prefixes -D_FORTIFY_SOURCE=2 -Wformat -Werror=format-security -fexceptions -frtti  -O2 -DNDEBUG -O3 -fPIC   -Ofast -std=c++14 -o oboe/CMakeFiles/oboe.dir/src/flowgraph/SourceFloat.cpp.o -c /home/luke/audio_apps_dev/JUCE/modules/juce_audio_devices/native/oboe/src/flowgraph/SourceFloat.cpp",
  "file": "/home/luke/audio_apps_dev/JUCE/modules/juce_audio_devices/native/oboe/src/flowgraph/SourceFloat.cpp"
},

{
  "directory": "/home/luke/audio_apps_dev/infra/infra/Builds/Android/app/.cxx/cmake/release_Release/arm64-v8a",
  "command": "/home/luke/Android/Sdk/ndk/21.0.6113669/toolchains/llvm/prebuilt/linux-x86_64/bin/clang++ --target=aarch64-none-linux-android21 --gcc-toolchain=/home/luke/Android/Sdk/ndk/21.0.6113669/toolchains/llvm/prebuilt/linux-x86_64 --sysroot=/home/luke/Android/Sdk/ndk/21.0.6113669/toolchains/llvm/prebuilt/linux-x86_64/sysroot   -I/home/luke/audio_apps_dev/JUCE/modules/juce_audio_devices/native/oboe/src -I/home/luke/audio_apps_dev/JUCE/modules/juce_audio_devices/native/oboe/include  -g -DANDROID -fdata-sections -ffunction-sections -funwind-tables -fstack-protector-strong -no-canonical-prefixes -D_FORTIFY_SOURCE=2 -Wformat -Werror=format-security -fexceptions -frtti  -O2 -DNDEBUG -O3 -fPIC   -Ofast -std=c++14 -o oboe/CMakeFiles/oboe.dir/src/flowgraph/SourceI16.cpp.o -c /home/luke/audio_apps_dev/JUCE/modules/juce_audio_devices/native/oboe/src/flowgraph/SourceI16.cpp",
  "file": "/home/luke/audio_apps_dev/JUCE/modules/juce_audio_devices/native/oboe/src/flowgraph/SourceI16.cpp"
},

{
  "directory": "/home/luke/audio_apps_dev/infra/infra/Builds/Android/app/.cxx/cmake/release_Release/arm64-v8a",
  "command": "/home/luke/Android/Sdk/ndk/21.0.6113669/toolchains/llvm/prebuilt/linux-x86_64/bin/clang++ --target=aarch64-none-linux-android21 --gcc-toolchain=/home/luke/Android/Sdk/ndk/21.0.6113669/toolchains/llvm/prebuilt/linux-x86_64 --sysroot=/home/luke/Android/Sdk/ndk/21.0.6113669/toolchains/llvm/prebuilt/linux-x86_64/sysroot   -I/home/luke/audio_apps_dev/JUCE/modules/juce_audio_devices/native/oboe/src -I/home/luke/audio_apps_dev/JUCE/modules/juce_audio_devices/native/oboe/include  -g -DANDROID -fdata-sections -ffunction-sections -funwind-tables -fstack-protector-strong -no-canonical-prefixes -D_FORTIFY_SOURCE=2 -Wformat -Werror=format-security -fexceptions -frtti  -O2 -DNDEBUG -O3 -fPIC   -Ofast -std=c++14 -o oboe/CMakeFiles/oboe.dir/src/flowgraph/SourceI24.cpp.o -c /home/luke/audio_apps_dev/JUCE/modules/juce_audio_devices/native/oboe/src/flowgraph/SourceI24.cpp",
  "file": "/home/luke/audio_apps_dev/JUCE/modules/juce_audio_devices/native/oboe/src/flowgraph/SourceI24.cpp"
},

{
  "directory": "/home/luke/audio_apps_dev/infra/infra/Builds/Android/app/.cxx/cmake/release_Release/arm64-v8a",
  "command": "/home/luke/Android/Sdk/ndk/21.0.6113669/toolchains/llvm/prebuilt/linux-x86_64/bin/clang++ --target=aarch64-none-linux-android21 --gcc-toolchain=/home/luke/Android/Sdk/ndk/21.0.6113669/toolchains/llvm/prebuilt/linux-x86_64 --sysroot=/home/luke/Android/Sdk/ndk/21.0.6113669/toolchains/llvm/prebuilt/linux-x86_64/sysroot   -I/home/luke/audio_apps_dev/JUCE/modules/juce_audio_devices/native/oboe/src -I/home/luke/audio_apps_dev/JUCE/modules/juce_audio_devices/native/oboe/include  -g -DANDROID -fdata-sections -ffunction-sections -funwind-tables -fstack-protector-strong -no-canonical-prefixes -D_FORTIFY_SOURCE=2 -Wformat -Werror=format-security -fexceptions -frtti  -O2 -DNDEBUG -O3 -fPIC   -Ofast -std=c++14 -o oboe/CMakeFiles/oboe.dir/src/flowgraph/resampler/IntegerRatio.cpp.o -c /home/luke/audio_apps_dev/JUCE/modules/juce_audio_devices/native/oboe/src/flowgraph/resampler/IntegerRatio.cpp",
  "file": "/home/luke/audio_apps_dev/JUCE/modules/juce_audio_devices/native/oboe/src/flowgraph/resampler/IntegerRatio.cpp"
},

{
  "directory": "/home/luke/audio_apps_dev/infra/infra/Builds/Android/app/.cxx/cmake/release_Release/arm64-v8a",
  "command": "/home/luke/Android/Sdk/ndk/21.0.6113669/toolchains/llvm/prebuilt/linux-x86_64/bin/clang++ --target=aarch64-none-linux-android21 --gcc-toolchain=/home/luke/Android/Sdk/ndk/21.0.6113669/toolchains/llvm/prebuilt/linux-x86_64 --sysroot=/home/luke/Android/Sdk/ndk/21.0.6113669/toolchains/llvm/prebuilt/linux-x86_64/sysroot   -I/home/luke/audio_apps_dev/JUCE/modules/juce_audio_devices/native/oboe/src -I/home/luke/audio_apps_dev/JUCE/modules/juce_audio_devices/native/oboe/include  -g -DANDROID -fdata-sections -ffunction-sections -funwind-tables -fstack-protector-strong -no-canonical-prefixes -D_FORTIFY_SOURCE=2 -Wformat -Werror=format-security -fexceptions -frtti  -O2 -DNDEBUG -O3 -fPIC   -Ofast -std=c++14 -o oboe/CMakeFiles/oboe.dir/src/flowgraph/resampler/LinearResampler.cpp.o -c /home/luke/audio_apps_dev/JUCE/modules/juce_audio_devices/native/oboe/src/flowgraph/resampler/LinearResampler.cpp",
  "file": "/home/luke/audio_apps_dev/JUCE/modules/juce_audio_devices/native/oboe/src/flowgraph/resampler/LinearResampler.cpp"
},

{
  "directory": "/home/luke/audio_apps_dev/infra/infra/Builds/Android/app/.cxx/cmake/release_Release/arm64-v8a",
  "command": "/home/luke/Android/Sdk/ndk/21.0.6113669/toolchains/llvm/prebuilt/linux-x86_64/bin/clang++ --target=aarch64-none-linux-android21 --gcc-toolchain=/home/luke/Android/Sdk/ndk/21.0.6113669/toolchains/llvm/prebuilt/linux-x86_64 --sysroot=/home/luke/Android/Sdk/ndk/21.0.6113669/toolchains/llvm/prebuilt/linux-x86_64/sysroot   -I/home/luke/audio_apps_dev/JUCE/modules/juce_audio_devices/native/oboe/src -I/home/luke/audio_apps_dev/JUCE/modules/juce_audio_devices/native/oboe/include  -g -DANDROID -fdata-sections -ffunction-sections -funwind-tables -fstack-protector-strong -no-canonical-prefixes -D_FORTIFY_SOURCE=2 -Wformat -Werror=format-security -fexceptions -frtti  -O2 -DNDEBUG -O3 -fPIC   -Ofast -std=c++14 -o oboe/CMakeFiles/oboe.dir/src/flowgraph/resampler/MultiChannelResampler.cpp.o -c /home/luke/audio_apps_dev/JUCE/modules/juce_audio_devices/native/oboe/src/flowgraph/resampler/MultiChannelResampler.cpp",
  "file": "/home/luke/audio_apps_dev/JUCE/modules/juce_audio_devices/native/oboe/src/flowgraph/resampler/MultiChannelResampler.cpp"
},

{
  "directory": "/home/luke/audio_apps_dev/infra/infra/Builds/Android/app/.cxx/cmake/release_Release/arm64-v8a",
  "command": "/home/luke/Android/Sdk/ndk/21.0.6113669/toolchains/llvm/prebuilt/linux-x86_64/bin/clang++ --target=aarch64-none-linux-android21 --gcc-toolchain=/home/luke/Android/Sdk/ndk/21.0.6113669/toolchains/llvm/prebuilt/linux-x86_64 --sysroot=/home/luke/Android/Sdk/ndk/21.0.6113669/toolchains/llvm/prebuilt/linux-x86_64/sysroot   -I/home/luke/audio_apps_dev/JUCE/modules/juce_audio_devices/native/oboe/src -I/home/luke/audio_apps_dev/JUCE/modules/juce_audio_devices/native/oboe/include  -g -DANDROID -fdata-sections -ffunction-sections -funwind-tables -fstack-protector-strong -no-canonical-prefixes -D_FORTIFY_SOURCE=2 -Wformat -Werror=format-security -fexceptions -frtti  -O2 -DNDEBUG -O3 -fPIC   -Ofast -std=c++14 -o oboe/CMakeFiles/oboe.dir/src/flowgraph/resampler/PolyphaseResampler.cpp.o -c /home/luke/audio_apps_dev/JUCE/modules/juce_audio_devices/native/oboe/src/flowgraph/resampler/PolyphaseResampler.cpp",
  "file": "/home/luke/audio_apps_dev/JUCE/modules/juce_audio_devices/native/oboe/src/flowgraph/resampler/PolyphaseResampler.cpp"
},

{
  "directory": "/home/luke/audio_apps_dev/infra/infra/Builds/Android/app/.cxx/cmake/release_Release/arm64-v8a",
  "command": "/home/luke/Android/Sdk/ndk/21.0.6113669/toolchains/llvm/prebuilt/linux-x86_64/bin/clang++ --target=aarch64-none-linux-android21 --gcc-toolchain=/home/luke/Android/Sdk/ndk/21.0.6113669/toolchains/llvm/prebuilt/linux-x86_64 --sysroot=/home/luke/Android/Sdk/ndk/21.0.6113669/toolchains/llvm/prebuilt/linux-x86_64/sysroot   -I/home/luke/audio_apps_dev/JUCE/modules/juce_audio_devices/native/oboe/src -I/home/luke/audio_apps_dev/JUCE/modules/juce_audio_devices/native/oboe/include  -g -DANDROID -fdata-sections -ffunction-sections -funwind-tables -fstack-protector-strong -no-canonical-prefixes -D_FORTIFY_SOURCE=2 -Wformat -Werror=format-security -fexceptions -frtti  -O2 -DNDEBUG -O3 -fPIC   -Ofast -std=c++14 -o oboe/CMakeFiles/oboe.dir/src/flowgraph/resampler/PolyphaseResamplerMono.cpp.o -c /home/luke/audio_apps_dev/JUCE/modules/juce_audio_devices/native/oboe/src/flowgraph/resampler/PolyphaseResamplerMono.cpp",
  "file": "/home/luke/audio_apps_dev/JUCE/modules/juce_audio_devices/native/oboe/src/flowgraph/resampler/PolyphaseResamplerMono.cpp"
},

{
  "directory": "/home/luke/audio_apps_dev/infra/infra/Builds/Android/app/.cxx/cmake/release_Release/arm64-v8a",
  "command": "/home/luke/Android/Sdk/ndk/21.0.6113669/toolchains/llvm/prebuilt/linux-x86_64/bin/clang++ --target=aarch64-none-linux-android21 --gcc-toolchain=/home/luke/Android/Sdk/ndk/21.0.6113669/toolchains/llvm/prebuilt/linux-x86_64 --sysroot=/home/luke/Android/Sdk/ndk/21.0.6113669/toolchains/llvm/prebuilt/linux-x86_64/sysroot   -I/home/luke/audio_apps_dev/JUCE/modules/juce_audio_devices/native/oboe/src -I/home/luke/audio_apps_dev/JUCE/modules/juce_audio_devices/native/oboe/include  -g -DANDROID -fdata-sections -ffunction-sections -funwind-tables -fstack-protector-strong -no-canonical-prefixes -D_FORTIFY_SOURCE=2 -Wformat -Werror=format-security -fexceptions -frtti  -O2 -DNDEBUG -O3 -fPIC   -Ofast -std=c++14 -o oboe/CMakeFiles/oboe.dir/src/flowgraph/resampler/PolyphaseResamplerStereo.cpp.o -c /home/luke/audio_apps_dev/JUCE/modules/juce_audio_devices/native/oboe/src/flowgraph/resampler/PolyphaseResamplerStereo.cpp",
  "file": "/home/luke/audio_apps_dev/JUCE/modules/juce_audio_devices/native/oboe/src/flowgraph/resampler/PolyphaseResamplerStereo.cpp"
},

{
  "directory": "/home/luke/audio_apps_dev/infra/infra/Builds/Android/app/.cxx/cmake/release_Release/arm64-v8a",
  "command": "/home/luke/Android/Sdk/ndk/21.0.6113669/toolchains/llvm/prebuilt/linux-x86_64/bin/clang++ --target=aarch64-none-linux-android21 --gcc-toolchain=/home/luke/Android/Sdk/ndk/21.0.6113669/toolchains/llvm/prebuilt/linux-x86_64 --sysroot=/home/luke/Android/Sdk/ndk/21.0.6113669/toolchains/llvm/prebuilt/linux-x86_64/sysroot   -I/home/luke/audio_apps_dev/JUCE/modules/juce_audio_devices/native/oboe/src -I/home/luke/audio_apps_dev/JUCE/modules/juce_audio_devices/native/oboe/include  -g -DANDROID -fdata-sections -ffunction-sections -funwind-tables -fstack-protector-strong -no-canonical-prefixes -D_FORTIFY_SOURCE=2 -Wformat -Werror=format-security -fexceptions -frtti  -O2 -DNDEBUG -O3 -fPIC   -Ofast -std=c++14 -o oboe/CMakeFiles/oboe.dir/src/flowgraph/resampler/SincResampler.cpp.o -c /home/luke/audio_apps_dev/JUCE/modules/juce_audio_devices/native/oboe/src/flowgraph/resampler/SincResampler.cpp",
  "file": "/home/luke/audio_apps_dev/JUCE/modules/juce_audio_devices/native/oboe/src/flowgraph/resampler/SincResampler.cpp"
},

{
  "directory": "/home/luke/audio_apps_dev/infra/infra/Builds/Android/app/.cxx/cmake/release_Release/arm64-v8a",
  "command": "/home/luke/Android/Sdk/ndk/21.0.6113669/toolchains/llvm/prebuilt/linux-x86_64/bin/clang++ --target=aarch64-none-linux-android21 --gcc-toolchain=/home/luke/Android/Sdk/ndk/21.0.6113669/toolchains/llvm/prebuilt/linux-x86_64 --sysroot=/home/luke/Android/Sdk/ndk/21.0.6113669/toolchains/llvm/prebuilt/linux-x86_64/sysroot   -I/home/luke/audio_apps_dev/JUCE/modules/juce_audio_devices/native/oboe/src -I/home/luke/audio_apps_dev/JUCE/modules/juce_audio_devices/native/oboe/include  -g -DANDROID -fdata-sections -ffunction-sections -funwind-tables -fstack-protector-strong -no-canonical-prefixes -D_FORTIFY_SOURCE=2 -Wformat -Werror=format-security -fexceptions -frtti  -O2 -DNDEBUG -O3 -fPIC   -Ofast -std=c++14 -o oboe/CMakeFiles/oboe.dir/src/flowgraph/resampler/SincResamplerStereo.cpp.o -c /home/luke/audio_apps_dev/JUCE/modules/juce_audio_devices/native/oboe/src/flowgraph/resampler/SincResamplerStereo.cpp",
  "file": "/home/luke/audio_apps_dev/JUCE/modules/juce_audio_devices/native/oboe/src/flowgraph/resampler/SincResamplerStereo.cpp"
},

{
  "directory": "/home/luke/audio_apps_dev/infra/infra/Builds/Android/app/.cxx/cmake/release_Release/arm64-v8a",
  "command": "/home/luke/Android/Sdk/ndk/21.0.6113669/toolchains/llvm/prebuilt/linux-x86_64/bin/clang++ --target=aarch64-none-linux-android21 --gcc-toolchain=/home/luke/Android/Sdk/ndk/21.0.6113669/toolchains/llvm/prebuilt/linux-x86_64 --sysroot=/home/luke/Android/Sdk/ndk/21.0.6113669/toolchains/llvm/prebuilt/linux-x86_64/sysroot   -I/home/luke/audio_apps_dev/JUCE/modules/juce_audio_devices/native/oboe/src -I/home/luke/audio_apps_dev/JUCE/modules/juce_audio_devices/native/oboe/include  -g -DANDROID -fdata-sections -ffunction-sections -funwind-tables -fstack-protector-strong -no-canonical-prefixes -D_FORTIFY_SOURCE=2 -Wformat -Werror=format-security -fexceptions -frtti  -O2 -DNDEBUG -O3 -fPIC   -Ofast -std=c++14 -o oboe/CMakeFiles/oboe.dir/src/opensles/AudioInputStreamOpenSLES.cpp.o -c /home/luke/audio_apps_dev/JUCE/modules/juce_audio_devices/native/oboe/src/opensles/AudioInputStreamOpenSLES.cpp",
  "file": "/home/luke/audio_apps_dev/JUCE/modules/juce_audio_devices/native/oboe/src/opensles/AudioInputStreamOpenSLES.cpp"
},

{
  "directory": "/home/luke/audio_apps_dev/infra/infra/Builds/Android/app/.cxx/cmake/release_Release/arm64-v8a",
  "command": "/home/luke/Android/Sdk/ndk/21.0.6113669/toolchains/llvm/prebuilt/linux-x86_64/bin/clang++ --target=aarch64-none-linux-android21 --gcc-toolchain=/home/luke/Android/Sdk/ndk/21.0.6113669/toolchains/llvm/prebuilt/linux-x86_64 --sysroot=/home/luke/Android/Sdk/ndk/21.0.6113669/toolchains/llvm/prebuilt/linux-x86_64/sysroot   -I/home/luke/audio_apps_dev/JUCE/modules/juce_audio_devices/native/oboe/src -I/home/luke/audio_apps_dev/JUCE/modules/juce_audio_devices/native/oboe/include  -g -DANDROID -fdata-sections -ffunction-sections -funwind-tables -fstack-protector-strong -no-canonical-prefixes -D_FORTIFY_SOURCE=2 -Wformat -Werror=format-security -fexceptions -frtti  -O2 -DNDEBUG -O3 -fPIC   -Ofast -std=c++14 -o oboe/CMakeFiles/oboe.dir/src/opensles/AudioOutputStreamOpenSLES.cpp.o -c /home/luke/audio_apps_dev/JUCE/modules/juce_audio_devices/native/oboe/src/opensles/AudioOutputStreamOpenSLES.cpp",
  "file": "/home/luke/audio_apps_dev/JUCE/modules/juce_audio_devices/native/oboe/src/opensles/AudioOutputStreamOpenSLES.cpp"
},

{
  "directory": "/home/luke/audio_apps_dev/infra/infra/Builds/Android/app/.cxx/cmake/release_Release/arm64-v8a",
  "command": "/home/luke/Android/Sdk/ndk/21.0.6113669/toolchains/llvm/prebuilt/linux-x86_64/bin/clang++ --target=aarch64-none-linux-android21 --gcc-toolchain=/home/luke/Android/Sdk/ndk/21.0.6113669/toolchains/llvm/prebuilt/linux-x86_64 --sysroot=/home/luke/Android/Sdk/ndk/21.0.6113669/toolchains/llvm/prebuilt/linux-x86_64/sysroot   -I/home/luke/audio_apps_dev/JUCE/modules/juce_audio_devices/native/oboe/src -I/home/luke/audio_apps_dev/JUCE/modules/juce_audio_devices/native/oboe/include  -g -DANDROID -fdata-sections -ffunction-sections -funwind-tables -fstack-protector-strong -no-canonical-prefixes -D_FORTIFY_SOURCE=2 -Wformat -Werror=format-security -fexceptions -frtti  -O2 -DNDEBUG -O3 -fPIC   -Ofast -std=c++14 -o oboe/CMakeFiles/oboe.dir/src/opensles/AudioStreamBuffered.cpp.o -c /home/luke/audio_apps_dev/JUCE/modules/juce_audio_devices/native/oboe/src/opensles/AudioStreamBuffered.cpp",
  "file": "/home/luke/audio_apps_dev/JUCE/modules/juce_audio_devices/native/oboe/src/opensles/AudioStreamBuffered.cpp"
},

{
  "directory": "/home/luke/audio_apps_dev/infra/infra/Builds/Android/app/.cxx/cmake/release_Release/arm64-v8a",
  "command": "/home/luke/Android/Sdk/ndk/21.0.6113669/toolchains/llvm/prebuilt/linux-x86_64/bin/clang++ --target=aarch64-none-linux-android21 --gcc-toolchain=/home/luke/Android/Sdk/ndk/21.0.6113669/toolchains/llvm/prebuilt/linux-x86_64 --sysroot=/home/luke/Android/Sdk/ndk/21.0.6113669/toolchains/llvm/prebuilt/linux-x86_64/sysroot   -I/home/luke/audio_apps_dev/JUCE/modules/juce_audio_devices/native/oboe/src -I/home/luke/audio_apps_dev/JUCE/modules/juce_audio_devices/native/oboe/include  -g -DANDROID -fdata-sections -ffunction-sections -funwind-tables -fstack-protector-strong -no-canonical-prefixes -D_FORTIFY_SOURCE=2 -Wformat -Werror=format-security -fexceptions -frtti  -O2 -DNDEBUG -O3 -fPIC   -Ofast -std=c++14 -o oboe/CMakeFiles/oboe.dir/src/opensles/AudioStreamOpenSLES.cpp.o -c /home/luke/audio_apps_dev/JUCE/modules/juce_audio_devices/native/oboe/src/opensles/AudioStreamOpenSLES.cpp",
  "file": "/home/luke/audio_apps_dev/JUCE/modules/juce_audio_devices/native/oboe/src/opensles/AudioStreamOpenSLES.cpp"
},

{
  "directory": "/home/luke/audio_apps_dev/infra/infra/Builds/Android/app/.cxx/cmake/release_Release/arm64-v8a",
  "command": "/home/luke/Android/Sdk/ndk/21.0.6113669/toolchains/llvm/prebuilt/linux-x86_64/bin/clang++ --target=aarch64-none-linux-android21 --gcc-toolchain=/home/luke/Android/Sdk/ndk/21.0.6113669/toolchains/llvm/prebuilt/linux-x86_64 --sysroot=/home/luke/Android/Sdk/ndk/21.0.6113669/toolchains/llvm/prebuilt/linux-x86_64/sysroot   -I/home/luke/audio_apps_dev/JUCE/modules/juce_audio_devices/native/oboe/src -I/home/luke/audio_apps_dev/JUCE/modules/juce_audio_devices/native/oboe/include  -g -DANDROID -fdata-sections -ffunction-sections -funwind-tables -fstack-protector-strong -no-canonical-prefixes -D_FORTIFY_SOURCE=2 -Wformat -Werror=format-security -fexceptions -frtti  -O2 -DNDEBUG -O3 -fPIC   -Ofast -std=c++14 -o oboe/CMakeFiles/oboe.dir/src/opensles/EngineOpenSLES.cpp.o -c /home/luke/audio_apps_dev/JUCE/modules/juce_audio_devices/native/oboe/src/opensles/EngineOpenSLES.cpp",
  "file": "/home/luke/audio_apps_dev/JUCE/modules/juce_audio_devices/native/oboe/src/opensles/EngineOpenSLES.cpp"
},

{
  "directory": "/home/luke/audio_apps_dev/infra/infra/Builds/Android/app/.cxx/cmake/release_Release/arm64-v8a",
  "command": "/home/luke/Android/Sdk/ndk/21.0.6113669/toolchains/llvm/prebuilt/linux-x86_64/bin/clang++ --target=aarch64-none-linux-android21 --gcc-toolchain=/home/luke/Android/Sdk/ndk/21.0.6113669/toolchains/llvm/prebuilt/linux-x86_64 --sysroot=/home/luke/Android/Sdk/ndk/21.0.6113669/toolchains/llvm/prebuilt/linux-x86_64/sysroot   -I/home/luke/audio_apps_dev/JUCE/modules/juce_audio_devices/native/oboe/src -I/home/luke/audio_apps_dev/JUCE/modules/juce_audio_devices/native/oboe/include  -g -DANDROID -fdata-sections -ffunction-sections -funwind-tables -fstack-protector-strong -no-canonical-prefixes -D_FORTIFY_SOURCE=2 -Wformat -Werror=format-security -fexceptions -frtti  -O2 -DNDEBUG -O3 -fPIC   -Ofast -std=c++14 -o oboe/CMakeFiles/oboe.dir/src/opensles/OpenSLESUtilities.cpp.o -c /home/luke/audio_apps_dev/JUCE/modules/juce_audio_devices/native/oboe/src/opensles/OpenSLESUtilities.cpp",
  "file": "/home/luke/audio_apps_dev/JUCE/modules/juce_audio_devices/native/oboe/src/opensles/OpenSLESUtilities.cpp"
},

{
  "directory": "/home/luke/audio_apps_dev/infra/infra/Builds/Android/app/.cxx/cmake/release_Release/arm64-v8a",
  "command": "/home/luke/Android/Sdk/ndk/21.0.6113669/toolchains/llvm/prebuilt/linux-x86_64/bin/clang++ --target=aarch64-none-linux-android21 --gcc-toolchain=/home/luke/Android/Sdk/ndk/21.0.6113669/toolchains/llvm/prebuilt/linux-x86_64 --sysroot=/home/luke/Android/Sdk/ndk/21.0.6113669/toolchains/llvm/prebuilt/linux-x86_64/sysroot   -I/home/luke/audio_apps_dev/JUCE/modules/juce_audio_devices/native/oboe/src -I/home/luke/audio_apps_dev/JUCE/modules/juce_audio_devices/native/oboe/include  -g -DANDROID -fdata-sections -ffunction-sections -funwind-tables -fstack-protector-strong -no-canonical-prefixes -D_FORTIFY_SOURCE=2 -Wformat -Werror=format-security -fexceptions -frtti  -O2 -DNDEBUG -O3 -fPIC   -Ofast -std=c++14 -o oboe/CMakeFiles/oboe.dir/src/opensles/OutputMixerOpenSLES.cpp.o -c /home/luke/audio_apps_dev/JUCE/modules/juce_audio_devices/native/oboe/src/opensles/OutputMixerOpenSLES.cpp",
  "file": "/home/luke/audio_apps_dev/JUCE/modules/juce_audio_devices/native/oboe/src/opensles/OutputMixerOpenSLES.cpp"
},

{
  "directory": "/home/luke/audio_apps_dev/infra/infra/Builds/Android/app/.cxx/cmake/release_Release/arm64-v8a",
  "command": "/home/luke/Android/Sdk/ndk/21.0.6113669/toolchains/llvm/prebuilt/linux-x86_64/bin/clang++ --target=aarch64-none-linux-android21 --gcc-toolchain=/home/luke/Android/Sdk/ndk/21.0.6113669/toolchains/llvm/prebuilt/linux-x86_64 --sysroot=/home/luke/Android/Sdk/ndk/21.0.6113669/toolchains/llvm/prebuilt/linux-x86_64/sysroot   -I/home/luke/audio_apps_dev/JUCE/modules/juce_audio_devices/native/oboe/src -I/home/luke/audio_apps_dev/JUCE/modules/juce_audio_devices/native/oboe/include  -g -DANDROID -fdata-sections -ffunction-sections -funwind-tables -fstack-protector-strong -no-canonical-prefixes -D_FORTIFY_SOURCE=2 -Wformat -Werror=format-security -fexceptions -frtti  -O2 -DNDEBUG -O3 -fPIC   -Ofast -std=c++14 -o oboe/CMakeFiles/oboe.dir/src/common/StabilizedCallback.cpp.o -c /home/luke/audio_apps_dev/JUCE/modules/juce_audio_devices/native/oboe/src/common/StabilizedCallback.cpp",
  "file": "/home/luke/audio_apps_dev/JUCE/modules/juce_audio_devices/native/oboe/src/common/StabilizedCallback.cpp"
},

{
  "directory": "/home/luke/audio_apps_dev/infra/infra/Builds/Android/app/.cxx/cmake/release_Release/arm64-v8a",
  "command": "/home/luke/Android/Sdk/ndk/21.0.6113669/toolchains/llvm/prebuilt/linux-x86_64/bin/clang++ --target=aarch64-none-linux-android21 --gcc-toolchain=/home/luke/Android/Sdk/ndk/21.0.6113669/toolchains/llvm/prebuilt/linux-x86_64 --sysroot=/home/luke/Android/Sdk/ndk/21.0.6113669/toolchains/llvm/prebuilt/linux-x86_64/sysroot   -I/home/luke/audio_apps_dev/JUCE/modules/juce_audio_devices/native/oboe/src -I/home/luke/audio_apps_dev/JUCE/modules/juce_audio_devices/native/oboe/include  -g -DANDROID -fdata-sections -ffunction-sections -funwind-tables -fstack-protector-strong -no-canonical-prefixes -D_FORTIFY_SOURCE=2 -Wformat -Werror=format-security -fexceptions -frtti  -O2 -DNDEBUG -O3 -fPIC   -Ofast -std=c++14 -o oboe/CMakeFiles/oboe.dir/src/common/Trace.cpp.o -c /home/luke/audio_apps_dev/JUCE/modules/juce_audio_devices/native/oboe/src/common/Trace.cpp",
  "file": "/home/luke/audio_apps_dev/JUCE/modules/juce_audio_devices/native/oboe/src/common/Trace.cpp"
},

{
  "directory": "/home/luke/audio_apps_dev/infra/infra/Builds/Android/app/.cxx/cmake/release_Release/arm64-v8a",
  "command": "/home/luke/Android/Sdk/ndk/21.0.6113669/toolchains/llvm/prebuilt/linux-x86_64/bin/clang++ --target=aarch64-none-linux-android21 --gcc-toolchain=/home/luke/Android/Sdk/ndk/21.0.6113669/toolchains/llvm/prebuilt/linux-x86_64 --sysroot=/home/luke/Android/Sdk/ndk/21.0.6113669/toolchains/llvm/prebuilt/linux-x86_64/sysroot   -I/home/luke/audio_apps_dev/JUCE/modules/juce_audio_devices/native/oboe/src -I/home/luke/audio_apps_dev/JUCE/modules/juce_audio_devices/native/oboe/include  -g -DANDROID -fdata-sections -ffunction-sections -funwind-tables -fstack-protector-strong -no-canonical-prefixes -D_FORTIFY_SOURCE=2 -Wformat -Werror=format-security -fexceptions -frtti  -O2 -DNDEBUG -O3 -fPIC   -Ofast -std=c++14 -o oboe/CMakeFiles/oboe.dir/src/common/Version.cpp.o -c /home/luke/audio_apps_dev/JUCE/modules/juce_audio_devices/native/oboe/src/common/Version.cpp",
  "file": "/home/luke/audio_apps_dev/JUCE/modules/juce_audio_devices/native/oboe/src/common/Version.cpp"
}
]